<?xml version="1.0" encoding="UTF-8" standalone="no"?>
<!-- Generator: Adobe Illustrator 23.0.3, SVG Export Plug-In . SVG Version: 6.00 Build 0)  -->

<svg
   xmlns:dc="http://purl.org/dc/elements/1.1/"
   xmlns:cc="http://creativecommons.org/ns#"
   xmlns:rdf="http://www.w3.org/1999/02/22-rdf-syntax-ns#"
   xmlns:svg="http://www.w3.org/2000/svg"
   xmlns="http://www.w3.org/2000/svg"
   xmlns:sodipodi="http://sodipodi.sourceforge.net/DTD/sodipodi-0.dtd"
   xmlns:inkscape="http://www.inkscape.org/namespaces/inkscape"
   version="1.1"
   id="content"
   x="0px"
   y="0px"
   viewBox="0 0 1240.9072 1347.0635"
   xml:space="preserve"
   sodipodi:docname="committee-masthead.svg"
   width="1240.9072"
   height="1347.0635"
   inkscape:version="0.92.4 (5da689c313, 2019-01-14)"><metadata
   id="metadata4997"><rdf:RDF><cc:Work
       rdf:about=""><dc:format>image/svg+xml</dc:format><dc:type
         rdf:resource="http://purl.org/dc/dcmitype/StillImage" /><dc:title></dc:title></cc:Work></rdf:RDF></metadata><defs
   id="defs4995" /><sodipodi:namedview
   pagecolor="#ffffff"
   bordercolor="#666666"
   borderopacity="1"
   objecttolerance="10"
   gridtolerance="10"
   guidetolerance="10"
   inkscape:pageopacity="0"
   inkscape:pageshadow="2"
   inkscape:window-width="3840"
   inkscape:window-height="2080"
   id="namedview4993"
   showgrid="false"
   fit-margin-top="0"
   fit-margin-left="0"
   fit-margin-right="0"
   fit-margin-bottom="0"
   inkscape:zoom="1.4793522"
   inkscape:cx="590.5547"
   inkscape:cy="829.53546"
   inkscape:window-x="-11"
   inkscape:window-y="-11"
   inkscape:window-maximized="1"
   inkscape:current-layer="content" />
<style
   type="text/css"
   id="style4356">
	.st0{fill:url(#SVGID_1_);}
	.st1{fill:url(#SVGID_2_);}
	.st2{fill:#62EF5F;}
	.st3{fill:url(#SVGID_3_);}
	.st4{fill:#0F1238;}
	.st5{fill:url(#SVGID_4_);}
	.st6{fill:#0B7A75;}
	.st7{fill:#FFFFFF;}
	.st8{fill:#0FD40A;}
	.st9{fill:#C1FFAD;}
	.st10{fill:#ED1E45;}
	.st11{fill:#E0BF89;}
	.st12{fill:#B21239;}
	.st13{fill:url(#SVGID_5_);}
	.st14{fill:url(#SVGID_6_);}
	.st15{fill:#F4E9D4;}
	.st16{fill:url(#SVGID_7_);}
	.st17{fill:#59B279;}
	.st18{fill:url(#SVGID_8_);}
	.st19{fill:#E2D1B3;}
	.st20{fill:none;}
	.st21{fill:url(#SVGID_9_);}
	.st22{fill:url(#SVGID_10_);}
	.st23{fill:url(#SVGID_11_);}
	.st24{fill:none;stroke:#0F1238;stroke-miterlimit:10;}
	.st25{fill:#28397F;}
</style>
<linearGradient
   id="SVGID_1_"
   gradientUnits="userSpaceOnUse"
   x1="668.46008"
   y1="1194.8202"
   x2="1614.6571"
   y2="248.62331"
   gradientTransform="translate(-369.4453,89.3)">
	<stop
   offset="4.289012e-07"
   style="stop-color:#28397F"
   id="stop4358" />
	<stop
   offset="3.295889e-02"
   style="stop-color:#27377C"
   id="stop4360" />
	<stop
   offset="0.4425"
   style="stop-color:#1A2357"
   id="stop4362" />
	<stop
   offset="0.7741"
   style="stop-color:#121740"
   id="stop4364" />
	<stop
   offset="0.9841"
   style="stop-color:#0F1238"
   id="stop4366" />
</linearGradient>
<path
   class="st0"
   d="m 597.5547,390.2 c -191.2,194.9 -596.99999988,191.6 -482.2,616.3 103.2,381.8 519.7,412.3 758.2,190.1 3,1.4 223.8,39 245.5,7.7 214.1,-309.1 112.4,-860.9 -55.8,-1047 -287.3,-317.9 -337.4,102.2 -465.7,232.9 z"
   id="path4369"
   inkscape:connector-curvature="0"
   style="fill:url(#SVGID_1_)" />
<g
   id="g4390"
   transform="translate(-369.4453,89.3)">
	<linearGradient
   id="SVGID_2_"
   gradientUnits="userSpaceOnUse"
   x1="722.49902"
   y1="1053.9674"
   x2="1796.2971"
   y2="-19.830799">
		<stop
   offset="5.045896e-08"
   style="stop-color:#0FD40A"
   id="stop4371" />
		<stop
   offset="0.332"
   style="stop-color:#11D30C"
   id="stop4373" />
		<stop
   offset="0.5062"
   style="stop-color:#16D114"
   id="stop4375" />
		<stop
   offset="0.6437"
   style="stop-color:#1FCD22"
   id="stop4377" />
		<stop
   offset="0.762"
   style="stop-color:#2BC735"
   id="stop4379" />
		<stop
   offset="0.868"
   style="stop-color:#3CBF4E"
   id="stop4381" />
		<stop
   offset="0.9638"
   style="stop-color:#50B66C"
   id="stop4383" />
		<stop
   offset="1"
   style="stop-color:#59B279"
   id="stop4385" />
	</linearGradient>
	<path
   class="st1"
   d="m 1506.5,893.8 c 219,-415.3 23.6,-983.1 23.6,-983.1 0,0 -246.8,0.6 -318.7,6.6 -72,6 -109.6,154.7 -109.6,154.7 138.2,106.7 228.3,282 228.3,480.1 0,325.1 -242.5,588.6 -541.7,588.6 -78.4,0 -152.9,-18.1 -220.2,-50.7 -117.8,39.9 154.9,209 413.6,158.4 186.3,-36.5 323.6,-109.9 416.3,-201.2 v 0 c 0,0 0.1,-0.1 0.1,-0.1 47.8,-47.2 83.7,-99.2 108.3,-153.3 z"
   id="path4388"
   inkscape:connector-curvature="0"
   style="fill:url(#SVGID_2_)" />
</g>
<g
   id="g4401"
   transform="translate(-369.4453,89.3)">
	<path
   class="st2"
   d="m 509.4,313.4 c 0,0 -23.8,-13.5 -45.9,12.4 -22.1,25.9 -88.4,125.1 -88.4,125.1 0,0 -12.1,19.4 -0.9,41.6 11.2,22.2 63.6,-62.3 63.6,-62.3 l 66,-98.8 z"
   id="path4392"
   inkscape:connector-curvature="0"
   style="fill:#62ef5f" />
	<linearGradient
   id="SVGID_3_"
   gradientUnits="userSpaceOnUse"
   x1="430.7652"
   y1="364.60641"
   x2="628.77899"
   y2="562.62012">
		<stop
   offset="4.289012e-07"
   style="stop-color:#28397F"
   id="stop4394" />
		<stop
   offset="0.9841"
   style="stop-color:#0F1238"
   id="stop4396" />
	</linearGradient>
	<path
   class="st3"
   d="m 689.9,441.5 -122.3,182 c -2.3,3.4 -6.8,4.3 -10.2,2 L 492.4,556 388.8,512.3 C 371.9,501 367.4,478.1 378.8,461.2 L 468.2,328 c 11.3,-16.9 34.2,-21.4 51.1,-10 l 91.3,81 77.3,32.2 c 3.4,2.4 4.3,6.9 2,10.3 z"
   id="path4399"
   inkscape:connector-curvature="0"
   style="fill:url(#SVGID_3_)" />
</g>
<path
   class="st4"
   d="m 723.6547,704.6 c 0,-154.9 -125.6,-280.5 -280.5,-280.5 -154.9,0 -280.5,125.6 -280.5,280.5 0,153.6 123.4,278.3 276.4,280.4 l 22.3,59.3 108.4,-2.9 -16.5,-78.8 c 100.2,-42.8 170.4,-142.2 170.4,-258 z"
   id="path4403"
   inkscape:connector-curvature="0"
   style="fill:#0f1238" />
<linearGradient
   id="SVGID_4_"
   gradientUnits="userSpaceOnUse"
   x1="606.49799"
   y1="409.1514"
   x2="991.8634"
   y2="794.51678"
   gradientTransform="translate(-369.4453,89.3)">
	<stop
   offset="7.064254e-08"
   style="stop-color:#C1FFAD"
   id="stop4405" />
	<stop
   offset="0.1104"
   style="stop-color:#B8FDA5"
   id="stop4407" />
	<stop
   offset="0.2874"
   style="stop-color:#A1F790"
   id="stop4409" />
	<stop
   offset="0.509"
   style="stop-color:#7BEE6D"
   id="stop4411" />
	<stop
   offset="0.7638"
   style="stop-color:#46E13C"
   id="stop4413" />
	<stop
   offset="1"
   style="stop-color:#0FD40A"
   id="stop4415" />
</linearGradient>
<circle
   class="st5"
   cx="434.2547"
   cy="695.59998"
   r="280.5"
   id="circle4418"
   style="fill:url(#SVGID_4_)" />
<g
   transform="rotate(124,1271.4485,289.89654)"
   id="g4608">
	<path
   class="st4"
   d="M 2210.8,728.3 2091.3,624.4 c -3,-2.6 -3.3,-7.1 -0.7,-10 l 62.5,-71.9 c 2.6,-3 7.1,-3.3 10,-0.7 l 119.5,103.9 c 3,2.6 3.3,7.1 0.7,10 l -62.5,71.9 c -2.6,3 -7.1,3.3 -10,0.7 z"
   id="path4420"
   inkscape:connector-curvature="0"
   style="fill:#0f1238" />
	<path
   class="st6"
   d="M 2209.7,733.7 2090.2,629.8 c -3,-2.6 -3.3,-7.1 -0.7,-10 l 62.5,-71.9 c 2.6,-3 7.1,-3.3 10,-0.7 l 119.5,103.9 c 3,2.6 3.3,7.1 0.7,10 l -62.5,71.9 c -2.5,3 -7,3.3 -10,0.7 z"
   id="path4422"
   inkscape:connector-curvature="0"
   style="fill:#0b7a75" />
	<g
   transform="translate(1603.312,629.124)"
   id="g4594">
		<path
   class="st7"
   d="m 613,93 -3.2,-2.8 c -0.6,-0.5 -0.7,-1.4 -0.1,-2 l 2.8,-3.2 c 0.5,-0.6 1.4,-0.7 2,-0.1 l 3.2,2.8 c 0.6,0.5 0.7,1.4 0.1,2 l -2.8,3.2 c -0.5,0.5 -1.4,0.6 -2,0.1 z"
   id="path4424"
   inkscape:connector-curvature="0"
   style="fill:#ffffff" />
		<path
   class="st7"
   d="m 620,84.9 -3.2,-2.8 c -0.6,-0.5 -0.7,-1.4 -0.1,-2 l 2.8,-3.2 c 0.5,-0.6 1.4,-0.7 2,-0.1 l 3.2,2.8 c 0.6,0.5 0.7,1.4 0.1,2 l -2.8,3.2 c -0.5,0.5 -1.4,0.6 -2,0.1 z"
   id="path4426"
   inkscape:connector-curvature="0"
   style="fill:#ffffff" />
		<path
   class="st7"
   d="M 627.1,76.8 623.9,74 c -0.6,-0.5 -0.7,-1.4 -0.1,-2 l 2.8,-3.2 c 0.5,-0.6 1.4,-0.7 2,-0.1 l 3.2,2.8 c 0.6,0.5 0.7,1.4 0.1,2 l -2.8,3.2 c -0.5,0.6 -1.4,0.6 -2,0.1 z"
   id="path4428"
   inkscape:connector-curvature="0"
   style="fill:#ffffff" />
		<path
   class="st7"
   d="m 634.1,68.7 -3.2,-2.8 c -0.6,-0.5 -0.7,-1.4 -0.1,-2 l 2.8,-3.2 c 0.5,-0.6 1.4,-0.7 2,-0.1 l 3.2,2.8 c 0.6,0.5 0.7,1.4 0.1,2 l -2.8,3.2 c -0.5,0.6 -1.4,0.6 -2,0.1 z"
   id="path4430"
   inkscape:connector-curvature="0"
   style="fill:#ffffff" />
		<path
   class="st7"
   d="m 641.1,60.6 -11.3,-9.8 c -0.6,-0.5 -0.7,-1.4 -0.1,-2 l 2.8,-3.2 c 0.5,-0.6 1.4,-0.7 2,-0.1 l 11.3,9.8 c 0.6,0.5 0.7,1.4 0.1,2 l -2.8,3.2 c -0.5,0.6 -1.4,0.7 -2,0.1 z"
   id="path4432"
   inkscape:connector-curvature="0"
   style="fill:#ffffff" />
		<path
   class="st7"
   d="M 648.2,52.6 645,49.8 c -0.6,-0.5 -0.7,-1.4 -0.1,-2 l 2.8,-3.2 c 0.5,-0.6 1.4,-0.7 2,-0.1 l 3.2,2.8 c 0.6,0.5 0.7,1.4 0.1,2 l -2.8,3.2 c -0.5,0.5 -1.4,0.6 -2,0.1 z"
   id="path4434"
   inkscape:connector-curvature="0"
   style="fill:#ffffff" />
		<path
   class="st7"
   d="m 596.9,78.9 -3.2,-2.8 c -0.6,-0.5 -0.7,-1.4 -0.1,-2 l 2.8,-3.2 c 0.5,-0.6 1.4,-0.7 2,-0.1 l 3.2,2.8 c 0.6,0.5 0.7,1.4 0.1,2 l -2.8,3.2 c -0.6,0.6 -1.5,0.6 -2,0.1 z"
   id="path4436"
   inkscape:connector-curvature="0"
   style="fill:#ffffff" />
		<path
   class="st7"
   d="M 603.9,70.8 600.7,68 c -0.6,-0.5 -0.7,-1.4 -0.1,-2 l 2.8,-3.2 c 0.5,-0.6 1.4,-0.7 2,-0.1 l 3.2,2.8 c 0.6,0.5 0.7,1.4 0.1,2 l -2.8,3.2 c -0.5,0.6 -1.4,0.7 -2,0.1 z"
   id="path4438"
   inkscape:connector-curvature="0"
   style="fill:#ffffff" />
		<path
   class="st7"
   d="M 610.9,62.8 607.7,60 c -0.6,-0.5 -0.7,-1.4 -0.1,-2 l 2.8,-3.2 c 0.5,-0.6 1.4,-0.7 2,-0.1 l 3.2,2.8 c 0.6,0.5 0.7,1.4 0.1,2 l -2.8,3.2 c -0.5,0.5 -1.4,0.6 -2,0.1 z"
   id="path4440"
   inkscape:connector-curvature="0"
   style="fill:#ffffff" />
		<path
   class="st7"
   d="m 617.9,54.7 -3.2,-2.8 c -0.6,-0.5 -0.7,-1.4 -0.1,-2 l 2.8,-3.2 c 0.5,-0.6 1.4,-0.7 2,-0.1 l 3.2,2.8 c 0.6,0.5 0.7,1.4 0.1,2 l -2.8,3.2 c -0.5,0.5 -1.4,0.6 -2,0.1 z"
   id="path4442"
   inkscape:connector-curvature="0"
   style="fill:#ffffff" />
		<path
   class="st7"
   d="m 625,46.6 -3.2,-2.8 c -0.6,-0.5 -0.7,-1.4 -0.1,-2 l 2.8,-3.2 c 0.5,-0.6 1.4,-0.7 2,-0.1 l 3.2,2.8 c 0.6,0.5 0.7,1.4 0.1,2 l -2.8,3.2 c -0.5,0.5 -1.4,0.6 -2,0.1 z"
   id="path4444"
   inkscape:connector-curvature="0"
   style="fill:#ffffff" />
		<path
   class="st7"
   d="m 632,38.5 -3.2,-2.8 c -0.6,-0.5 -0.7,-1.4 -0.1,-2 l 2.8,-3.2 c 0.5,-0.6 1.4,-0.7 2,-0.1 l 3.2,2.8 c 0.6,0.5 0.7,1.4 0.1,2 l -2.8,3.2 c -0.5,0.6 -1.4,0.6 -2,0.1 z"
   id="path4446"
   inkscape:connector-curvature="0"
   style="fill:#ffffff" />
		<path
   class="st7"
   d="m 580.7,64.9 -3.2,-2.8 c -0.6,-0.5 -0.7,-1.4 -0.1,-2 l 2.8,-3.2 c 0.5,-0.6 1.4,-0.7 2,-0.1 l 3.2,2.8 c 0.6,0.5 0.7,1.4 0.1,2 l -2.8,3.2 c -0.5,0.5 -1.4,0.6 -2,0.1 z"
   id="path4448"
   inkscape:connector-curvature="0"
   style="fill:#ffffff" />
		<path
   class="st7"
   d="M 587.7,56.8 584.5,54 c -0.6,-0.5 -0.7,-1.4 -0.1,-2 l 2.8,-3.2 c 0.5,-0.6 1.4,-0.7 2,-0.1 l 3.2,2.8 c 0.6,0.5 0.7,1.4 0.1,2 l -2.8,3.2 c -0.5,0.5 -1.4,0.6 -2,0.1 z"
   id="path4450"
   inkscape:connector-curvature="0"
   style="fill:#ffffff" />
		<path
   class="st7"
   d="m 594.7,48.7 -3.2,-2.8 c -0.6,-0.5 -0.7,-1.4 -0.1,-2 l 2.8,-3.2 c 0.5,-0.6 1.4,-0.7 2,-0.1 l 3.2,2.8 c 0.6,0.5 0.7,1.4 0.1,2 l -2.8,3.2 c -0.5,0.6 -1.4,0.6 -2,0.1 z"
   id="path4452"
   inkscape:connector-curvature="0"
   style="fill:#ffffff" />
		<path
   class="st7"
   d="m 601.8,40.6 -3.2,-2.8 c -0.6,-0.5 -0.7,-1.4 -0.1,-2 l 2.8,-3.2 c 0.5,-0.6 1.4,-0.7 2,-0.1 l 3.2,2.8 c 0.6,0.5 0.7,1.4 0.1,2 l -2.8,3.2 c -0.5,0.6 -1.4,0.6 -2,0.1 z"
   id="path4454"
   inkscape:connector-curvature="0"
   style="fill:#ffffff" />
		<path
   class="st7"
   d="m 608.8,32.5 -3.2,-2.8 c -0.6,-0.5 -0.7,-1.4 -0.1,-2 l 2.8,-3.2 c 0.5,-0.6 1.4,-0.7 2,-0.1 l 3.2,2.8 c 0.6,0.5 0.7,1.4 0.1,2 l -2.8,3.2 c -0.5,0.6 -1.4,0.6 -2,0.1 z"
   id="path4456"
   inkscape:connector-curvature="0"
   style="fill:#ffffff" />
		<path
   class="st7"
   d="m 615.8,24.4 -3.2,-2.8 c -0.6,-0.5 -0.7,-1.4 -0.1,-2 l 2.8,-3.2 c 0.5,-0.6 1.4,-0.7 2,-0.1 l 3.2,2.8 c 0.6,0.5 0.7,1.4 0.1,2 l -2.8,3.2 c -0.5,0.6 -1.4,0.7 -2,0.1 z"
   id="path4458"
   inkscape:connector-curvature="0"
   style="fill:#ffffff" />
		<path
   class="st7"
   d="M 564.5,50.8 561.3,48 c -0.6,-0.5 -0.7,-1.4 -0.1,-2 l 2.8,-3.2 c 0.5,-0.6 1.4,-0.7 2,-0.1 l 3.2,2.8 c 0.6,0.5 0.7,1.4 0.1,2 l -2.8,3.2 c -0.5,0.6 -1.4,0.6 -2,0.1 z"
   id="path4460"
   inkscape:connector-curvature="0"
   style="fill:#ffffff" />
		<path
   class="st7"
   d="m 571.5,42.7 -3.2,-2.8 c -0.6,-0.5 -0.7,-1.4 -0.1,-2 l 2.8,-3.2 c 0.5,-0.6 1.4,-0.7 2,-0.1 l 3.2,2.8 c 0.6,0.5 0.7,1.4 0.1,2 l -2.8,3.2 c -0.5,0.6 -1.4,0.6 -2,0.1 z"
   id="path4462"
   inkscape:connector-curvature="0"
   style="fill:#ffffff" />
		<path
   class="st7"
   d="m 578.6,34.6 -3.2,-2.8 c -0.6,-0.5 -0.7,-1.4 -0.1,-2 l 2.8,-3.2 c 0.5,-0.6 1.4,-0.7 2,-0.1 l 3.2,2.8 c 0.6,0.5 0.7,1.4 0.1,2 l -2.8,3.2 c -0.5,0.6 -1.4,0.7 -2,0.1 z"
   id="path4464"
   inkscape:connector-curvature="0"
   style="fill:#ffffff" />
		<path
   class="st7"
   d="m 585.6,26.6 -3.2,-2.8 c -0.6,-0.5 -0.7,-1.4 -0.1,-2 l 2.8,-3.2 c 0.5,-0.6 1.4,-0.7 2,-0.1 l 3.2,2.8 c 0.6,0.5 0.7,1.4 0.1,2 l -2.8,3.2 c -0.5,0.5 -1.4,0.6 -2,0.1 z"
   id="path4466"
   inkscape:connector-curvature="0"
   style="fill:#ffffff" />
		<path
   class="st7"
   d="m 592.6,18.5 -3.2,-2.8 c -0.6,-0.5 -0.7,-1.4 -0.1,-2 l 2.8,-3.2 c 0.5,-0.6 1.4,-0.7 2,-0.1 l 3.2,2.8 c 0.6,0.5 0.7,1.4 0.1,2 l -2.8,3.2 c -0.5,0.5 -1.4,0.6 -2,0.1 z"
   id="path4468"
   inkscape:connector-curvature="0"
   style="fill:#ffffff" />
		<path
   class="st7"
   d="M 548.4,36.8 545.2,34 c -0.6,-0.5 -0.7,-1.4 -0.1,-2 l 2.8,-3.2 c 0.5,-0.6 1.4,-0.7 2,-0.1 l 3.2,2.8 c 0.6,0.5 0.7,1.4 0.1,2 l -2.8,3.2 c -0.6,0.5 -1.5,0.6 -2,0.1 z"
   id="path4470"
   inkscape:connector-curvature="0"
   style="fill:#ffffff" />
		<path
   class="st7"
   d="m 555.4,28.7 -3.2,-2.8 c -0.6,-0.5 -0.7,-1.4 -0.1,-2 l 2.8,-3.2 c 0.5,-0.6 1.4,-0.7 2,-0.1 l 3.2,2.8 c 0.6,0.5 0.7,1.4 0.1,2 l -2.8,3.2 c -0.5,0.5 -1.4,0.6 -2,0.1 z"
   id="path4472"
   inkscape:connector-curvature="0"
   style="fill:#ffffff" />
		<path
   class="st7"
   d="m 562.4,20.6 -3.2,-2.8 c -0.6,-0.5 -0.7,-1.4 -0.1,-2 l 2.8,-3.2 c 0.5,-0.6 1.4,-0.7 2,-0.1 l 3.2,2.8 c 0.6,0.5 0.7,1.4 0.1,2 l -2.8,3.2 c -0.5,0.5 -1.4,0.6 -2,0.1 z"
   id="path4474"
   inkscape:connector-curvature="0"
   style="fill:#ffffff" />
		<path
   class="st7"
   d="m 569.4,12.5 -3.2,-2.8 c -0.6,-0.5 -0.7,-1.4 -0.1,-2 l 2.8,-3.2 c 0.5,-0.6 1.4,-0.7 2,-0.1 l 3.2,2.8 c 0.6,0.5 0.7,1.4 0.1,2 l -2.8,3.2 c -0.5,0.6 -1.4,0.6 -2,0.1 z"
   id="path4476"
   inkscape:connector-curvature="0"
   style="fill:#ffffff" />
		<path
   class="st7"
   d="m 576.5,4.4 -3.2,-2.8 c -0.6,-0.5 -0.7,-1.4 -0.1,-2 l 2.8,-3.2 c 0.5,-0.6 1.4,-0.7 2,-0.1 l 3.2,2.8 c 0.6,0.5 0.7,1.4 0.1,2 l -2.8,3.2 c -0.5,0.6 -1.4,0.6 -2,0.1 z"
   id="path4478"
   inkscape:connector-curvature="0"
   style="fill:#ffffff" />
		<path
   class="st7"
   d="M 532.2,22.7 529,19.9 c -0.6,-0.5 -0.7,-1.4 -0.1,-2 l 2.8,-3.2 c 0.5,-0.6 1.4,-0.7 2,-0.1 l 3.2,2.8 c 0.6,0.5 0.7,1.4 0.1,2 l -2.8,3.2 c -0.5,0.6 -1.4,0.6 -2,0.1 z"
   id="path4480"
   inkscape:connector-curvature="0"
   style="fill:#ffffff" />
		<path
   class="st7"
   d="M 539.2,14.6 536,11.8 c -0.6,-0.5 -0.7,-1.4 -0.1,-2 l 2.8,-3.2 c 0.5,-0.6 1.4,-0.7 2,-0.1 l 3.2,2.8 c 0.6,0.5 0.7,1.4 0.1,2 l -2.8,3.2 c -0.5,0.6 -1.4,0.6 -2,0.1 z"
   id="path4482"
   inkscape:connector-curvature="0"
   style="fill:#ffffff" />
		<path
   class="st7"
   d="M 546.2,6.5 543,3.7 c -0.6,-0.5 -0.7,-1.4 -0.1,-2 l 2.8,-3.2 c 0.5,-0.6 1.4,-0.7 2,-0.1 l 3.2,2.8 c 0.6,0.5 0.7,1.4 0.1,2 l -2.8,3.2 c -0.5,0.6 -1.4,0.7 -2,0.1 z"
   id="path4484"
   inkscape:connector-curvature="0"
   style="fill:#ffffff" />
		<path
   class="st7"
   d="M 553.3,-1.6 550,-4.4 c -0.6,-0.5 -0.7,-1.4 -0.1,-2 l 2.8,-3.2 c 0.5,-0.6 1.4,-0.7 2,-0.1 l 3.2,2.8 c 0.6,0.5 0.7,1.4 0.1,2 l -2.8,3.2 c -0.4,0.6 -1.3,0.7 -1.9,0.1 z"
   id="path4486"
   inkscape:connector-curvature="0"
   style="fill:#ffffff" />
		<path
   class="st7"
   d="m 560.3,-9.6 -3.2,-2.8 c -0.6,-0.5 -0.7,-1.4 -0.1,-2 l 2.8,-3.2 c 0.5,-0.6 1.4,-0.7 2,-0.1 l 3.2,2.7 c 0.6,0.5 0.7,1.4 0.1,2 l -2.8,3.2 c -0.5,0.6 -1.4,0.7 -2,0.2 z"
   id="path4488"
   inkscape:connector-curvature="0"
   style="fill:#ffffff" />
		<path
   class="st7"
   d="m 567.3,-17.7 -3.2,-2.8 c -0.6,-0.5 -0.7,-1.4 -0.1,-2 l 2.8,-3.2 c 0.5,-0.6 1.4,-0.7 2,-0.1 l 3.2,2.8 c 0.6,0.5 0.7,1.4 0.1,2 l -2.8,3.2 c -0.5,0.5 -1.4,0.6 -2,0.1 z"
   id="path4490"
   inkscape:connector-curvature="0"
   style="fill:#ffffff" />
		<path
   class="st7"
   d="m 516,8.6 -3.2,-2.8 c -0.6,-0.5 -0.7,-1.4 -0.1,-2 l 2.8,-3.2 c 0.5,-0.6 1.4,-0.7 2,-0.1 l 3.2,2.8 c 0.6,0.5 0.7,1.4 0.1,2 L 518,8.5 c -0.5,0.6 -1.4,0.7 -2,0.1 z"
   id="path4492"
   inkscape:connector-curvature="0"
   style="fill:#ffffff" />
		<path
   class="st7"
   d="m 523,0.6 -3.2,-2.8 c -0.6,-0.5 -0.7,-1.4 -0.1,-2 l 2.8,-3.2 c 0.5,-0.6 1.4,-0.7 2,-0.1 l 3.2,2.8 c 0.6,0.5 0.7,1.4 0.1,2 L 525,0.5 c -0.5,0.5 -1.4,0.6 -2,0.1 z"
   id="path4494"
   inkscape:connector-curvature="0"
   style="fill:#ffffff" />
		<path
   class="st7"
   d="m 530.1,-7.5 -3.2,-2.8 c -0.6,-0.5 -0.7,-1.4 -0.1,-2 l 2.8,-3.2 c 0.5,-0.6 1.4,-0.7 2,-0.1 l 3.2,2.8 c 0.6,0.5 0.7,1.4 0.1,2 l -2.8,3.2 c -0.5,0.5 -1.4,0.6 -2,0.1 z"
   id="path4496"
   inkscape:connector-curvature="0"
   style="fill:#ffffff" />
		<path
   class="st7"
   d="m 537.1,-15.6 -3.2,-2.8 c -0.6,-0.5 -0.7,-1.4 -0.1,-2 l 2.8,-3.2 c 0.5,-0.6 1.4,-0.7 2,-0.1 l 3.2,2.8 c 0.6,0.5 0.7,1.4 0.1,2 l -2.8,3.2 c -0.5,0.5 -1.4,0.6 -2,0.1 z"
   id="path4498"
   inkscape:connector-curvature="0"
   style="fill:#ffffff" />
		<path
   class="st7"
   d="m 544.1,-23.7 -3.2,-2.8 c -0.6,-0.5 -0.7,-1.4 -0.1,-2 l 2.8,-3.2 c 0.5,-0.6 1.4,-0.7 2,-0.1 l 3.2,2.8 c 0.6,0.5 0.7,1.4 0.1,2 l -2.8,3.2 c -0.5,0.6 -1.4,0.6 -2,0.1 z"
   id="path4500"
   inkscape:connector-curvature="0"
   style="fill:#ffffff" />
		<path
   class="st7"
   d="m 551.2,-31.8 -3.2,-2.8 c -0.6,-0.5 -0.7,-1.4 -0.1,-2 l 2.8,-3.2 c 0.5,-0.6 1.4,-0.7 2,-0.1 l 3.2,2.8 c 0.6,0.5 0.7,1.4 0.1,2 l -2.8,3.2 c -0.6,0.6 -1.5,0.6 -2,0.1 z"
   id="path4502"
   inkscape:connector-curvature="0"
   style="fill:#ffffff" />
		<path
   class="st7"
   d="m 604.9,85.9 -3.2,-2.8 c -0.6,-0.5 -0.7,-1.4 -0.1,-2 l 2.8,-3.2 c 0.5,-0.6 1.4,-0.7 2,-0.1 l 3.2,2.8 c 0.6,0.5 0.7,1.4 0.1,2 l -2.8,3.2 c -0.5,0.6 -1.4,0.7 -2,0.1 z"
   id="path4504"
   inkscape:connector-curvature="0"
   style="fill:#ffffff" />
		<path
   class="st7"
   d="m 612,77.9 -3.2,-2.8 c -0.6,-0.5 -0.7,-1.4 -0.1,-2 l 2.8,-3.2 c 0.5,-0.6 1.4,-0.7 2,-0.1 l 3.2,2.8 c 0.6,0.5 0.7,1.4 0.1,2 l -2.8,3.2 c -0.5,0.5 -1.4,0.6 -2,0.1 z"
   id="path4506"
   inkscape:connector-curvature="0"
   style="fill:#ffffff" />
		<path
   class="st7"
   d="M 619,69.8 615.8,67 c -0.6,-0.5 -0.7,-1.4 -0.1,-2 l 2.8,-3.2 c 0.5,-0.6 1.4,-0.7 2,-0.1 l 3.2,2.8 c 0.6,0.5 0.7,1.4 0.1,2 l -2.8,3.2 c -0.5,0.5 -1.4,0.6 -2,0.1 z"
   id="path4508"
   inkscape:connector-curvature="0"
   style="fill:#ffffff" />
		<path
   class="st7"
   d="m 626,61.7 -3.2,-2.8 c -0.6,-0.5 -0.7,-1.4 -0.1,-2 l 2.8,-3.2 c 0.5,-0.6 1.4,-0.7 2,-0.1 l 3.2,2.8 c 0.6,0.5 0.7,1.4 0.1,2 l -2.8,3.2 c -0.5,0.5 -1.4,0.6 -2,0.1 z"
   id="path4510"
   inkscape:connector-curvature="0"
   style="fill:#ffffff" />
		<path
   class="st7"
   d="m 640.1,45.5 -3.2,-2.8 c -0.6,-0.5 -0.7,-1.4 -0.1,-2 l 2.8,-3.2 c 0.5,-0.6 1.4,-0.7 2,-0.1 l 3.2,2.8 c 0.6,0.5 0.7,1.4 0.1,2 l -2.8,3.2 c -0.5,0.6 -1.4,0.6 -2,0.1 z"
   id="path4512"
   inkscape:connector-curvature="0"
   style="fill:#ffffff" />
		<path
   class="st7"
   d="m 588.8,71.9 -3.2,-2.8 c -0.6,-0.5 -0.7,-1.4 -0.1,-2 l 2.8,-3.2 c 0.5,-0.6 1.4,-0.7 2,-0.1 l 3.2,2.8 c 0.6,0.5 0.7,1.4 0.1,2 l -2.8,3.2 c -0.5,0.5 -1.4,0.6 -2,0.1 z"
   id="path4514"
   inkscape:connector-curvature="0"
   style="fill:#ffffff" />
		<path
   class="st7"
   d="M 595.8,63.8 592.6,61 c -0.6,-0.5 -0.7,-1.4 -0.1,-2 l 2.8,-3.2 c 0.5,-0.6 1.4,-0.7 2,-0.1 l 3.2,2.8 c 0.6,0.5 0.7,1.4 0.1,2 l -2.8,3.2 c -0.5,0.6 -1.4,0.6 -2,0.1 z"
   id="path4516"
   inkscape:connector-curvature="0"
   style="fill:#ffffff" />
		<path
   class="st7"
   d="m 602.8,55.7 -3.2,-2.8 c -0.6,-0.5 -0.7,-1.4 -0.1,-2 l 2.8,-3.2 c 0.5,-0.6 1.4,-0.7 2,-0.1 l 3.2,2.8 c 0.6,0.5 0.7,1.4 0.1,2 l -2.8,3.2 c -0.5,0.6 -1.4,0.6 -2,0.1 z"
   id="path4518"
   inkscape:connector-curvature="0"
   style="fill:#ffffff" />
		<path
   class="st7"
   d="m 609.9,47.6 -3.2,-2.8 c -0.6,-0.5 -0.7,-1.4 -0.1,-2 l 2.8,-3.2 c 0.5,-0.6 1.4,-0.7 2,-0.1 l 3.2,2.8 c 0.6,0.5 0.7,1.4 0.1,2 l -2.8,3.2 c -0.6,0.6 -1.5,0.7 -2,0.1 z"
   id="path4520"
   inkscape:connector-curvature="0"
   style="fill:#ffffff" />
		<path
   class="st7"
   d="m 616.9,39.6 -3.2,-2.8 c -0.6,-0.5 -0.7,-1.4 -0.1,-2 l 2.8,-3.2 c 0.5,-0.6 1.4,-0.7 2,-0.1 l 3.2,2.8 c 0.6,0.5 0.7,1.4 0.1,2 l -2.8,3.2 c -0.5,0.5 -1.4,0.6 -2,0.1 z"
   id="path4522"
   inkscape:connector-curvature="0"
   style="fill:#ffffff" />
		<path
   class="st7"
   d="m 623.9,31.5 -3.2,-2.8 c -0.6,-0.5 -0.7,-1.4 -0.1,-2 l 2.8,-3.2 c 0.5,-0.6 1.4,-0.7 2,-0.1 l 3.2,2.8 c 0.6,0.5 0.7,1.4 0.1,2 l -2.8,3.2 c -0.5,0.5 -1.4,0.6 -2,0.1 z"
   id="path4524"
   inkscape:connector-curvature="0"
   style="fill:#ffffff" />
		<path
   class="st7"
   d="M 572.6,57.8 569.4,55 c -0.6,-0.5 -0.7,-1.4 -0.1,-2 l 2.8,-3.2 c 0.5,-0.6 1.4,-0.7 2,-0.1 l 3.2,2.8 c 0.6,0.5 0.7,1.4 0.1,2 l -2.8,3.2 c -0.5,0.6 -1.4,0.7 -2,0.1 z"
   id="path4526"
   inkscape:connector-curvature="0"
   style="fill:#ffffff" />
		<path
   class="st7"
   d="M 579.6,49.8 576.4,47 c -0.6,-0.5 -0.7,-1.4 -0.1,-2 l 2.8,-3.2 c 0.5,-0.6 1.4,-0.7 2,-0.1 l 3.2,2.8 c 0.6,0.5 0.7,1.4 0.1,2 l -2.8,3.2 c -0.5,0.5 -1.4,0.6 -2,0.1 z"
   id="path4528"
   inkscape:connector-curvature="0"
   style="fill:#ffffff" />
		<path
   class="st7"
   d="m 586.7,41.7 -3.2,-2.8 c -0.6,-0.5 -0.7,-1.4 -0.1,-2 l 2.8,-3.2 c 0.5,-0.6 1.4,-0.7 2,-0.1 l 3.2,2.8 c 0.6,0.5 0.7,1.4 0.1,2 l -2.8,3.2 c -0.5,0.5 -1.4,0.6 -2,0.1 z"
   id="path4530"
   inkscape:connector-curvature="0"
   style="fill:#ffffff" />
		<path
   class="st7"
   d="m 593.7,33.6 -3.2,-2.8 c -0.6,-0.5 -0.7,-1.4 -0.1,-2 l 2.8,-3.2 c 0.5,-0.6 1.4,-0.7 2,-0.1 l 3.2,2.8 c 0.6,0.5 0.7,1.4 0.1,2 l -2.8,3.2 c -0.5,0.5 -1.4,0.6 -2,0.1 z"
   id="path4532"
   inkscape:connector-curvature="0"
   style="fill:#ffffff" />
		<path
   class="st7"
   d="m 600.7,25.5 -3.2,-2.8 c -0.6,-0.5 -0.7,-1.4 -0.1,-2 l 2.8,-3.2 c 0.5,-0.6 1.4,-0.7 2,-0.1 l 3.2,2.8 c 0.6,0.5 0.7,1.4 0.1,2 l -2.8,3.2 c -0.5,0.6 -1.4,0.6 -2,0.1 z"
   id="path4534"
   inkscape:connector-curvature="0"
   style="fill:#ffffff" />
		<path
   class="st7"
   d="M 556.4,43.8 553.2,41 c -0.6,-0.5 -0.7,-1.4 -0.1,-2 l 2.8,-3.2 c 0.5,-0.6 1.4,-0.7 2,-0.1 l 3.2,2.8 c 0.6,0.5 0.7,1.4 0.1,2 l -2.8,3.2 c -0.5,0.5 -1.4,0.6 -2,0.1 z"
   id="path4536"
   inkscape:connector-curvature="0"
   style="fill:#ffffff" />
		<path
   class="st7"
   d="m 563.5,35.7 -3.2,-2.8 c -0.6,-0.5 -0.7,-1.4 -0.1,-2 l 2.8,-3.2 c 0.5,-0.6 1.4,-0.7 2,-0.1 l 3.2,2.8 c 0.6,0.5 0.7,1.4 0.1,2 l -2.8,3.2 c -0.5,0.6 -1.4,0.6 -2,0.1 z"
   id="path4538"
   inkscape:connector-curvature="0"
   style="fill:#ffffff" />
		<path
   class="st7"
   d="m 570.5,27.6 -3.2,-2.8 c -0.6,-0.5 -0.7,-1.4 -0.1,-2 l 2.8,-3.2 c 0.5,-0.6 1.4,-0.7 2,-0.1 l 3.2,2.8 c 0.6,0.5 0.7,1.4 0.1,2 l -2.8,3.2 c -0.5,0.6 -1.4,0.6 -2,0.1 z"
   id="path4540"
   inkscape:connector-curvature="0"
   style="fill:#ffffff" />
		<path
   class="st7"
   d="m 577.5,19.5 -3.2,-2.8 c -0.6,-0.5 -0.7,-1.4 -0.1,-2 l 2.8,-3.2 c 0.5,-0.6 1.4,-0.7 2,-0.1 l 3.2,2.8 c 0.6,0.5 0.7,1.4 0.1,2 l -2.8,3.2 c -0.5,0.6 -1.4,0.6 -2,0.1 z"
   id="path4542"
   inkscape:connector-curvature="0"
   style="fill:#ffffff" />
		<path
   class="st7"
   d="m 584.5,11.4 -3.2,-2.8 c -0.6,-0.5 -0.7,-1.4 -0.1,-2 L 584,3.4 c 0.5,-0.6 1.4,-0.7 2,-0.1 l 3.2,2.8 c 0.6,0.5 0.7,1.4 0.1,2 l -2.8,3.2 c -0.5,0.6 -1.4,0.7 -2,0.1 z"
   id="path4544"
   inkscape:connector-curvature="0"
   style="fill:#ffffff" />
		<path
   class="st7"
   d="m 607.7,17.4 -35.6,-30.9 c -0.6,-0.5 -0.7,-1.4 -0.1,-2 l 2.8,-3.2 c 0.5,-0.6 1.4,-0.7 2,-0.1 L 612.4,12 c 0.6,0.5 0.7,1.4 0.1,2 l -2.8,3.2 c -0.5,0.7 -1.4,0.7 -2,0.2 z"
   id="path4546"
   inkscape:connector-curvature="0"
   style="fill:#ffffff" />
		<path
   class="st7"
   d="m 614.8,9.3 -35.6,-30.9 c -0.6,-0.5 -0.7,-1.4 -0.1,-2 l 15.3,-17.6 c 0.5,-0.6 1.4,-0.7 2,-0.1 l 35.6,30.9 c 0.6,0.5 0.7,1.4 0.1,2 L 616.8,9.2 c -0.5,0.6 -1.4,0.7 -2,0.1 z"
   id="path4548"
   inkscape:connector-curvature="0"
   style="fill:#ffffff" />
		<path
   class="st7"
   d="m 540.3,29.7 -3.2,-2.8 c -0.6,-0.5 -0.7,-1.4 -0.1,-2 l 2.8,-3.2 c 0.5,-0.6 1.4,-0.7 2,-0.1 l 3.2,2.8 c 0.6,0.5 0.7,1.4 0.1,2 l -2.8,3.2 c -0.5,0.6 -1.4,0.6 -2,0.1 z"
   id="path4550"
   inkscape:connector-curvature="0"
   style="fill:#ffffff" />
		<path
   class="st7"
   d="m 547.3,21.6 -3.2,-2.8 c -0.6,-0.5 -0.7,-1.4 -0.1,-2 l 2.8,-3.2 c 0.5,-0.6 1.4,-0.7 2,-0.1 l 3.2,2.8 c 0.6,0.5 0.7,1.4 0.1,2 l -2.8,3.2 c -0.5,0.6 -1.4,0.7 -2,0.1 z"
   id="path4552"
   inkscape:connector-curvature="0"
   style="fill:#ffffff" />
		<path
   class="st7"
   d="m 554.3,13.6 -3.2,-2.8 c -0.6,-0.5 -0.7,-1.4 -0.1,-2 l 2.8,-3.2 c 0.5,-0.6 1.4,-0.7 2,-0.1 l 3.2,2.8 c 0.6,0.5 0.7,1.4 0.1,2 l -2.8,3.2 c -0.5,0.5 -1.4,0.6 -2,0.1 z"
   id="path4554"
   inkscape:connector-curvature="0"
   style="fill:#ffffff" />
		<path
   class="st7"
   d="m 561.3,5.5 -3.2,-2.8 c -0.6,-0.5 -0.7,-1.4 -0.1,-2 l 2.8,-3.2 c 0.5,-0.6 1.4,-0.7 2,-0.1 l 3.2,2.8 c 0.6,0.5 0.7,1.4 0.1,2 l -2.8,3.2 c -0.5,0.5 -1.4,0.6 -2,0.1 z"
   id="path4556"
   inkscape:connector-curvature="0"
   style="fill:#ffffff" />
		<path
   class="st7"
   d="m 568.4,-2.6 -3.2,-2.8 c -0.6,-0.5 -0.7,-1.4 -0.1,-2 l 2.8,-3.2 c 0.5,-0.6 1.4,-0.7 2,-0.1 l 3.2,2.8 c 0.6,0.5 0.7,1.4 0.1,2 l -2.8,3.2 c -0.5,0.5 -1.4,0.6 -2,0.1 z"
   id="path4558"
   inkscape:connector-curvature="0"
   style="fill:#ffffff" />
		<path
   class="st7"
   d="m 524.1,15.7 -3.2,-2.8 c -0.6,-0.5 -0.7,-1.4 -0.1,-2 l 2.8,-3.2 c 0.5,-0.6 1.4,-0.7 2,-0.1 l 3.2,2.8 c 0.6,0.5 0.7,1.4 0.1,2 l -2.8,3.2 c -0.5,0.5 -1.4,0.6 -2,0.1 z"
   id="path4560"
   inkscape:connector-curvature="0"
   style="fill:#ffffff" />
		<path
   class="st7"
   d="m 531.1,7.6 -3.2,-2.8 c -0.6,-0.5 -0.7,-1.4 -0.1,-2 l 2.8,-3.2 c 0.5,-0.6 1.4,-0.7 2,-0.1 l 3.2,2.8 c 0.6,0.5 0.7,1.4 0.1,2 l -2.8,3.2 c -0.5,0.5 -1.4,0.6 -2,0.1 z"
   id="path4562"
   inkscape:connector-curvature="0"
   style="fill:#ffffff" />
		<path
   class="st7"
   d="M 538.2,-0.5 535,-3.3 c -0.6,-0.5 -0.7,-1.4 -0.1,-2 l 2.8,-3.2 c 0.5,-0.6 1.4,-0.7 2,-0.1 l 3.2,2.8 c 0.6,0.5 0.7,1.4 0.1,2 l -2.8,3.2 c -0.6,0.6 -1.5,0.6 -2,0.1 z"
   id="path4564"
   inkscape:connector-curvature="0"
   style="fill:#ffffff" />
		<path
   class="st7"
   d="m 545.2,-8.6 -3.2,-2.8 c -0.6,-0.5 -0.7,-1.4 -0.1,-2 l 2.8,-3.2 c 0.5,-0.6 1.4,-0.7 2,-0.1 l 3.2,2.8 c 0.6,0.5 0.7,1.4 0.1,2 l -2.8,3.2 c -0.5,0.6 -1.4,0.6 -2,0.1 z"
   id="path4566"
   inkscape:connector-curvature="0"
   style="fill:#ffffff" />
		<path
   class="st7"
   d="m 552.2,-16.7 -3.2,-2.8 c -0.6,-0.5 -0.7,-1.4 -0.1,-2 l 2.8,-3.2 c 0.5,-0.6 1.4,-0.7 2,-0.1 l 3.2,2.8 c 0.6,0.5 0.7,1.4 0.1,2 l -2.8,3.2 c -0.5,0.6 -1.4,0.7 -2,0.1 z"
   id="path4568"
   inkscape:connector-curvature="0"
   style="fill:#ffffff" />
		<path
   class="st7"
   d="m 559.2,-24.7 -3.2,-2.8 c -0.6,-0.5 -0.7,-1.4 -0.1,-2 l 2.8,-3.2 c 0.5,-0.6 1.4,-0.7 2,-0.1 l 3.2,2.8 c 0.6,0.5 0.7,1.4 0.1,2 l -2.8,3.2 c -0.5,0.5 -1.4,0.6 -2,0.1 z"
   id="path4570"
   inkscape:connector-curvature="0"
   style="fill:#ffffff" />
		<path
   class="st7"
   d="m 507.9,1.6 -3.2,-2.8 c -0.6,-0.5 -0.7,-1.4 -0.1,-2 l 2.8,-3.2 c 0.5,-0.6 1.4,-0.7 2,-0.1 l 3.2,2.8 c 0.6,0.5 0.7,1.4 0.1,2 l -2.8,3.2 c -0.5,0.6 -1.4,0.6 -2,0.1 z"
   id="path4572"
   inkscape:connector-curvature="0"
   style="fill:#ffffff" />
		<path
   class="st7"
   d="m 515,-6.5 -3.2,-2.8 c -0.6,-0.5 -0.7,-1.4 -0.1,-2 l 2.8,-3.2 c 0.5,-0.6 1.4,-0.7 2,-0.1 l 3.2,2.8 c 0.6,0.5 0.7,1.4 0.1,2 l -2.8,3.2 c -0.5,0.6 -1.4,0.7 -2,0.1 z"
   id="path4574"
   inkscape:connector-curvature="0"
   style="fill:#ffffff" />
		<path
   class="st7"
   d="m 522,-14.5 -3.2,-2.8 c -0.6,-0.5 -0.7,-1.4 -0.1,-2 l 2.8,-3.2 c 0.5,-0.6 1.4,-0.7 2,-0.1 l 3.2,2.8 c 0.6,0.5 0.7,1.4 0.1,2 l -2.8,3.2 c -0.5,0.5 -1.4,0.6 -2,0.1 z"
   id="path4576"
   inkscape:connector-curvature="0"
   style="fill:#ffffff" />
		<path
   class="st7"
   d="m 529,-22.6 -3.2,-2.8 c -0.6,-0.5 -0.7,-1.4 -0.1,-2 l 2.8,-3.2 c 0.5,-0.6 1.4,-0.7 2,-0.1 l 3.2,2.8 c 0.6,0.5 0.7,1.4 0.1,2 l -2.8,3.2 c -0.5,0.5 -1.4,0.6 -2,0.1 z"
   id="path4578"
   inkscape:connector-curvature="0"
   style="fill:#ffffff" />
		<path
   class="st7"
   d="m 543.1,-38.8 -3.2,-2.8 c -0.6,-0.5 -0.7,-1.4 -0.1,-2 l 2.8,-3.2 c 0.5,-0.6 1.4,-0.7 2,-0.1 l 3.2,2.8 c 0.6,0.5 0.7,1.4 0.1,2 l -2.8,3.2 c -0.5,0.6 -1.4,0.6 -2,0.1 z"
   id="path4580"
   inkscape:connector-curvature="0"
   style="fill:#ffffff" />
		<path
   class="st7"
   d="m 499.8,-5.4 -3.2,-2.8 c -0.6,-0.5 -0.7,-1.4 -0.1,-2 l 2.8,-3.2 c 0.5,-0.6 1.4,-0.7 2,-0.1 l 3.2,2.8 c 0.6,0.5 0.7,1.4 0.1,2 l -2.8,3.2 c -0.5,0.5 -1.4,0.6 -2,0.1 z"
   id="path4582"
   inkscape:connector-curvature="0"
   style="fill:#ffffff" />
		<path
   class="st7"
   d="m 506.9,-13.5 -3.2,-2.8 c -0.6,-0.5 -0.7,-1.4 -0.1,-2 l 2.8,-3.2 c 0.5,-0.6 1.4,-0.7 2,-0.1 l 3.2,2.8 c 0.6,0.5 0.7,1.4 0.1,2 l -2.8,3.2 c -0.5,0.6 -1.4,0.6 -2,0.1 z"
   id="path4584"
   inkscape:connector-curvature="0"
   style="fill:#ffffff" />
		<path
   class="st7"
   d="m 513.9,-21.6 -3.2,-2.8 c -0.6,-0.5 -0.7,-1.4 -0.1,-2 l 2.8,-3.2 c 0.5,-0.6 1.4,-0.7 2,-0.1 l 3.2,2.8 c 0.6,0.5 0.7,1.4 0.1,2 l -2.8,3.2 c -0.5,0.6 -1.4,0.6 -2,0.1 z"
   id="path4586"
   inkscape:connector-curvature="0"
   style="fill:#ffffff" />
		<path
   class="st7"
   d="m 520.9,-29.7 -3.2,-2.8 c -0.6,-0.5 -0.7,-1.4 -0.1,-2 l 2.8,-3.2 c 0.5,-0.6 1.4,-0.7 2,-0.1 l 3.2,2.8 c 0.6,0.5 0.7,1.4 0.1,2 l -2.8,3.2 c -0.5,0.6 -1.4,0.7 -2,0.1 z"
   id="path4588"
   inkscape:connector-curvature="0"
   style="fill:#ffffff" />
		<path
   class="st7"
   d="m 536,-30.7 -11.3,-9.8 c -0.6,-0.5 -0.7,-1.4 -0.1,-2 l 2.8,-3.2 c 0.5,-0.6 1.4,-0.7 2,-0.1 l 11.3,9.8 c 0.6,0.5 0.7,1.4 0.1,2 l -2.8,3.2 c -0.5,0.5 -1.4,0.6 -2,0.1 z"
   id="path4590"
   inkscape:connector-curvature="0"
   style="fill:#ffffff" />
		<path
   class="st7"
   d="m 535,-45.8 -3.2,-2.8 c -0.6,-0.5 -0.7,-1.4 -0.1,-2 l 2.8,-3.2 c 0.5,-0.6 1.4,-0.7 2,-0.1 l 3.2,2.8 c 0.6,0.5 0.7,1.4 0.1,2 L 537,-46 c -0.5,0.6 -1.4,0.7 -2,0.2 z"
   id="path4592"
   inkscape:connector-curvature="0"
   style="fill:#ffffff" />
	</g>
	<path
   class="st4"
   d="M 2180.7,785.8 2042.1,665.3 c -2.5,-2.2 -2.7,-5.9 -0.6,-8.4 v 0 l 39.4,-27.2 c 2.2,-2.5 5.9,-2.7 8.4,-0.6 v 0 l 121.3,105.4 c 2.5,2.2 2.7,5.9 0.6,8.4 v 0 l -22.1,42.3 c -2.1,2.5 -5.9,2.7 -8.4,0.6 0,0 0,0 0,0 z"
   id="path4596"
   inkscape:connector-curvature="0"
   style="fill:#0f1238" />
	<path
   class="st7"
   d="M 2180.1,780.6 2047.3,665.2 c -2.4,-1.9 -2.8,-5.3 -0.9,-7.7 l 34.6,-24 c 2.1,-2.2 5.6,-2.3 7.8,-0.2 l 117.7,102.3 c 2.4,1.9 2.8,5.3 0.9,7.7 l -19.5,37.1 c -2.1,2.2 -5.6,2.3 -7.8,0.2 z"
   id="path4598"
   inkscape:connector-curvature="0"
   style="fill:#ffffff" />
	<g
   id="g4606">
		<polygon
   class="st8"
   points="2180.1,768 2182.7,763.6 2132.7,720.2 2129.8,724.3 "
   id="polygon4600"
   style="fill:#0fd40a" />
		<polygon
   class="st8"
   points="2187.8,754.9 2138.5,712.2 2135.6,716.2 2185.2,759.3 "
   id="polygon4602"
   style="fill:#0fd40a" />
		<polygon
   class="st8"
   points="2193.1,745.9 2144.6,703.8 2141.7,707.8 2190.5,750.3 "
   id="polygon4604"
   style="fill:#0fd40a" />
	</g>
</g>
<g
   id="g4630"
   transform="translate(-369.4453,89.3)">
	<path
   class="st4"
   d="m 970.1,666.9 c -1.5,8.1 -8.5,14.2 -16.9,14.2 -4.1,0 -7.8,-1.4 -10.7,-3.8 -0.4,-0.4 -0.7,-0.9 -1,-1.4 -1.1,2.4 -1.7,5.1 -1.7,8 0,11 8.9,19.9 19.9,19.9 11,0 19.9,-8.9 19.9,-19.9 -0.1,-7.2 -3.9,-13.5 -9.5,-17 z"
   id="path4610"
   inkscape:connector-curvature="0"
   style="fill:#0f1238" />
	<path
   class="st9"
   d="m 941.4,656.8 -10.5,-10.5 v 2.8 3.4 2.8 l 8,8 c 0.4,-2.4 1.3,-4.6 2.5,-6.5 z"
   id="path4612"
   inkscape:connector-curvature="0"
   style="fill:#c1ffad" />
	<g
   id="g4620">
		<path
   class="st7"
   d="m 933.2,662.4 v 1.3 c 0,-0.4 0,-0.9 0,-1.3 z"
   id="path4614"
   inkscape:connector-curvature="0"
   style="fill:#ffffff" />
		<path
   class="st7"
   d="m 973,662.4 c 0,0.4 0,0.9 0,1.3 z"
   id="path4616"
   inkscape:connector-curvature="0"
   style="fill:#ffffff" />
		<path
   class="st7"
   d="m 953.1,643.8 c -11,0 -19.9,8.9 -19.9,19.9 v 13.7 0 c 0.2,10.8 9,19.6 19.9,19.6 10.9,0 19.7,-8.7 19.9,-19.6 v 0 -13.7 c 0,-11 -8.9,-19.9 -19.9,-19.9 z m 0,37.3 c -4.1,0 -7.8,-1.4 -10.7,-3.8 -2.4,-3 -3.8,-6.8 -3.8,-11 0,-9.6 7.7,-17.4 17.2,-17.4 4.1,0 7.8,1.4 10.7,3.8 2.4,3 3.8,6.8 3.8,11 0.1,9.6 -7.6,17.4 -17.2,17.4 z"
   id="path4618"
   inkscape:connector-curvature="0"
   style="fill:#ffffff" />
	</g>
	<path
   class="st7"
   d="m 945.4,652.5 -10.4,-10.4 -4.2,4.2 10.6,10.6 c 1,-1.7 2.4,-3.2 4,-4.4 z"
   id="path4622"
   inkscape:connector-curvature="0"
   style="fill:#ffffff" />
	<g
   id="g4626">
		<path
   class="st9"
   d="m 953.1,683.6 c -2.7,0 -5.3,-0.5 -7.6,-1.5 v 13.3 c 2.4,1 4.9,1.5 7.6,1.5 10.9,0 19.7,-8.7 19.9,-19.5 v 0 -13.3 0 c -0.2,10.8 -9,19.5 -19.9,19.5 z"
   id="path4624"
   inkscape:connector-curvature="0"
   style="fill:#c1ffad" />
	</g>
	<path
   class="st4"
   d="m 955.8,648.9 c 4.1,0 7.8,1.4 10.7,3.8 -3.2,-3.9 -8,-6.5 -13.4,-6.5 -9.5,0 -17.2,7.8 -17.2,17.4 0,5.5 2.5,10.4 6.5,13.6 -2.4,-3 -3.8,-6.8 -3.8,-11 0,-9.5 7.7,-17.3 17.2,-17.3 z"
   id="path4628"
   inkscape:connector-curvature="0"
   style="fill:#0f1238" />
</g>
<ellipse
   transform="rotate(-26.060244)"
   class="st10"
   cx="-11.19531"
   cy="1233.9003"
   rx="16.899385"
   ry="16.299408"
   id="ellipse4632"
   style="fill:#ed1e45;stroke-width:0.9999637" />
<g
   id="g4648"
   transform="translate(-369.4453,89.3)">
	<path
   class="st7"
   d="m 958.9,903.8 c 0,0 -39.8,4.1 -44,2.9 l 0.4,17.5 -0.4,9.5 c -30,1 -77.4,19.7 -81.8,21.5 v -0.1 l -0.2,-0.2 c 0,0 -0.1,-0.3 -0.2,-0.3 l -18.8,-20.8 -36.2,21.5 c 12.2,25.3 24.6,38.5 33.1,45.3 0.1,0.1 0.2,0.2 0.3,0.3 2,2 4.6,3.9 7.5,5.5 8.6,4.9 19.3,7.8 20.6,8.1 1.8,0.3 40.6,-1.1 59.5,-5.8 18.9,-4.7 62.9,-28.6 62.9,-28.6 6.2,-4.4 8.4,-10.8 9,-16.4 v 0 c -0.1,-0.2 3.8,-24.8 -11.7,-59.9 z"
   id="path4634"
   inkscape:connector-curvature="0"
   style="fill:#ffffff" />
	<path
   class="st11"
   d="m 929.5,975.5 c 0,0 5.6,-10.4 -3,-18.3 -8.6,-7.9 -4.6,-3.6 -4.6,-3.6 0,0 -12.1,-19.2 -18.7,-21.8 -6.5,-2.6 -12.7,-2.5 -12.7,-2.5 0,0 -5.4,-4.2 -7.5,-4.6 -2.1,-0.4 -6.3,4.9 -6.9,5.7 -0.6,0.8 -15.3,10.2 -16.7,15.2 -1.4,5 -7.1,20.2 -6.4,25.7 0,0 -4.6,7.5 -2.7,11.4 1.9,3.9 2.8,5.9 5.9,8.2 0,0 1.7,13.6 4.2,16.7 2.5,3.1 22.6,19.9 40.7,10.7 18.2,-9.1 31.3,-14.9 28.4,-42.8 z"
   id="path4636"
   inkscape:connector-curvature="0"
   style="fill:#e0bf89" />
	<path
   class="st8"
   d="m 779,1046.1 c 0,0 8.8,15.1 59.3,8.8 50.6,-6.3 147.8,-32.4 163.2,-44.7 15.4,-12.3 15.4,-12.3 15.4,-12.3 0,0 -11.7,35.7 -100.5,52 -88.7,16.4 -115.1,22.3 -137.4,-3.8 z"
   id="path4638"
   inkscape:connector-curvature="0"
   style="fill:#0fd40a" />
	<path
   class="st10"
   d="m 926.9,1016.2 c -3.5,-1.4 -6.3,-1.8 -8.7,-1.7 6.5,-4.9 11.2,-10.6 11.7,-11.7 0.7,-1.7 -1.7,-35 -7.6,-48.5 -1.9,-4.3 -3.4,-7.1 -4.9,-8.7 v 0 c -4.9,-10 -15.1,-3.9 -20.4,0.3 -10,-3.1 -28.5,-6.8 -40.5,2.5 -17.2,13.2 3.1,51.6 4.7,56.5 1.6,4.8 0.5,11.7 7.7,14.8 2.2,0.9 5.7,1.8 9.8,2.4 -2.4,1.1 -4.7,2.7 -6.1,5.2 0,0 3.8,-1.3 8.1,-1.4 -2.4,5.6 -3.4,12.8 -0.4,21.6 0,0 7.8,-20.5 25,-14.1 9.6,3.6 8.8,-2.1 6.2,-7.8 7.6,-1.3 27,-4.7 15.4,-9.4 z m -18.3,4 c 0.1,0 0.2,-0.1 0.3,-0.1 -0.1,0.1 -0.1,0.2 -0.2,0.3 -0.1,0 -0.1,-0.1 -0.1,-0.2 z"
   id="path4640"
   inkscape:connector-curvature="0"
   style="fill:#ed1e45" />
	<path
   class="st12"
   d="m 922.2,1003.3 c 4.3,-6.3 -0.6,-46.1 -13.9,-47.3 -4.8,-0.4 -8.5,0.8 -11.3,2.5 -6.4,0.1 -33,1.6 -33.9,18.8 -1,19.5 2.5,38.4 10.6,40 3.7,0.7 9.4,1.7 14.9,1.2 -1.8,2.9 -3.3,7.3 -0.9,12.2 4.4,8.9 11,14.1 18.8,12.6 7.8,-1.5 14.7,-9.8 13.5,-18 -0.7,-4.8 -2.8,-10.7 -5.5,-15 3.5,-2.4 6.3,-4.9 7.7,-7 z"
   id="path4642"
   inkscape:connector-curvature="0"
   style="fill:#b21239" />
	<path
   class="st11"
   d="m 810.7,935.5 c 0,0 0,0 0,0 l 1.8,-1 -22.7,-42.4 v 0 c -1.4,-2.7 -2.8,-5.3 -4.1,-7.8 8.9,-15.3 26.3,-56 34.2,-76.9 1.2,-1.8 2.8,-3.8 4.9,-4.5 3.4,-1.1 3.6,0.8 12.3,-4.9 8.7,-5.7 9.4,-6.1 9.4,-6.1 0,0 1.5,-4.1 -3.1,-3.2 -4.6,0.9 -8.5,4.4 -8.9,3.7 -0.4,-0.7 0.8,-3.6 4.7,-7.1 3.9,-3.5 7.5,-5.9 7.8,-7.1 0.3,-1.2 0.3,-4.3 -1.4,-5.3 -1.7,-1 -3.6,-0.8 -3.6,-0.8 0,0 -1.6,-4.1 -6.9,-2.7 -2.2,0.6 -3.2,0.9 -3.5,1 -0.7,-0.7 -4.2,-3.4 -10.4,-0.3 0,0 -5.3,1.4 -7.7,4 -2.4,2.6 -6.2,14.3 -6.3,20.5 0,0.1 0,0.1 0,0.2 -3.8,4.5 -6.7,11.8 -18.2,28.2 -21.6,30.6 -31.6,48.8 -38.1,65.6 -1,2.7 -1.1,5 -0.3,6.8 1.4,5 8.7,29.4 28.1,59 z"
   id="path4644"
   inkscape:connector-curvature="0"
   style="fill:#e0bf89" />
	<path
   class="st11"
   d="m 856.5,722.5 c 1.8,0.4 6.6,-0.2 6.6,-0.2 0,0 4,3.1 4.1,4.3 0.1,1.2 0.9,7.1 0.9,7.1 0,0 -2.9,1 -4.2,-0.1 -1.3,-1 -2.1,-6.9 -4.6,-7.8 -2.5,-0.9 -1.8,9.2 -1.8,9.2 0,0 3,4.4 4.9,6 2,1.5 10.2,4.7 13.9,5.4 3.7,0.7 6.3,2.8 7.5,6.8 1.2,4 13.1,51.6 24.8,77.7 0,0 4,54.3 6.6,75.9 5.5,0.9 43.7,-2.9 43.7,-2.9 1.1,2.4 2,4.8 2.9,7.1 -5.7,-25.2 -14.4,-60.5 -22.4,-78 0,0 -10.8,-38.2 -35.5,-76.4 0,0 -8.7,-16.3 -9.9,-21.5 -1.3,-5.2 -1,-8.3 -9.7,-14.9 -8.6,-6.7 -9.3,-7.2 -9.3,-7.2 0,0 -2.5,-0.9 -4.6,1.8 0,0 -2.6,-1.5 -4.5,2.4 0,0 -3.7,-0.7 -7.6,1.6 -3.9,2.3 -3.9,2.3 -3.9,2.3 0,0 0.2,1 2.1,1.4 z"
   id="path4646"
   inkscape:connector-curvature="0"
   style="fill:#e0bf89" />
</g>
<g
   id="g4774"
   transform="translate(-369.4453,89.3)">
	<path
   class="st7"
   d="m 1115.3,317.5 c -13,-20.4 -58.6,-62.8 -58.6,-62.8 -3.2,-2.3 -6.6,-3.7 -9.9,-4.4 -3.3,-0.7 -6.6,-0.7 -9.6,-0.3 v 0 c -5.6,0.2 -62.5,11.7 -62.5,11.7 l 2.8,41.3 v 0 c 0,0 0.1,0 0.2,0 l 0.4,7.3 c 0,0 0.6,4.1 2,4.1 0.9,0 31.3,-5.6 50.1,-9.1 0.5,4.2 1.2,7.9 1.8,10.3 0,0 0,0 0,0 1.4,4.7 2.7,9.4 3.7,14 3.3,7.1 7.5,13.8 11.7,20.1 4.9,7.2 10.4,14.1 16.1,20.7 l 22.6,-5.5 40.4,-26.2 c -3.7,-8.1 -7.6,-15.5 -11.2,-21.2 z"
   id="path4650"
   inkscape:connector-curvature="0"
   style="fill:#ffffff" />
	<linearGradient
   id="SVGID_5_"
   gradientUnits="userSpaceOnUse"
   x1="924.63568"
   y1="439.77328"
   x2="924.63568"
   y2="439.77328">
		<stop
   offset="4.289012e-07"
   style="stop-color:#273282"
   id="stop4652" />
		<stop
   offset="0.9841"
   style="stop-color:#0F1238"
   id="stop4654" />
	</linearGradient>
	<path
   class="st13"
   d="M 924.6,439.8"
   id="path4657"
   inkscape:connector-curvature="0"
   style="fill:url(#SVGID_5_)" />
	<linearGradient
   id="SVGID_6_"
   gradientUnits="userSpaceOnUse"
   x1="870.922"
   y1="485.41501"
   x2="1010.6849"
   y2="485.41501">
		<stop
   offset="4.289012e-07"
   style="stop-color:#273282"
   id="stop4659" />
		<stop
   offset="0.9841"
   style="stop-color:#0F1238"
   id="stop4661" />
	</linearGradient>
	<polygon
   class="st14"
   points="924.9,553.9 870.9,493.5 956.7,416.9 1010.7,477.3 "
   id="polygon4664"
   style="fill:url(#SVGID_6_)" />
	
		<rect
   x="899.5"
   y="426.10001"
   transform="matrix(-0.6664,-0.7456,0.7456,-0.6664,1205.9088,1506.72)"
   class="st7"
   width="81"
   height="115"
   id="rect4666"
   style="fill:#ffffff" />
	
		<rect
   x="896.40002"
   y="414.89999"
   transform="matrix(-0.7071,-0.7071,0.7071,-0.7071,1266.1736,1469.2651)"
   class="st4"
   width="82"
   height="115"
   id="rect4668"
   style="fill:#0f1238" />
	
		<rect
   x="895.20001"
   y="413.89999"
   transform="matrix(-0.7071,-0.7071,0.7071,-0.7071,1264.885,1466.7314)"
   class="st7"
   width="82"
   height="115"
   id="rect4670"
   style="fill:#ffffff" />
	<path
   class="st4"
   d="m 925.7,459.2 c 0.2,0.9 0.7,3 2,5.4 0.1,0.3 0.6,0.3 0.7,0 0.5,-0.8 1.2,-2.5 1.9,-5.4 0.1,-0.3 -0.1,-0.5 -0.4,-0.5 h -3.8 c -0.2,0 -0.4,0.3 -0.4,0.5 z"
   id="path4672"
   inkscape:connector-curvature="0"
   style="fill:#0f1238" />
	<path
   class="st15"
   d="m 1071.6,300.2 c 0,0 -12,-2.1 -16.9,8.9 -4.9,11 -2,5.7 -2,5.7 0,0 -14.8,18.1 -15.2,25.4 -0.4,7.3 1.7,13.3 1.7,13.3 0,0 -2.3,6.6 -2,8.8 0.3,2.2 6.9,4.5 7.8,4.9 0.9,0.3 15,11.6 20.4,11.3 5.4,-0.2 22.1,0.3 27.2,-2.2 0,0 8.8,2 12,-1.1 3.2,-3.1 4.8,-4.7 6.1,-8.5 0,0 12.7,-6.2 15,-9.6 2.3,-3.4 12.1,-28.6 -2.9,-43.4 -14.8,-14.6 -24.8,-25.5 -51.2,-13.5 z"
   id="path4674"
   inkscape:connector-curvature="0"
   style="fill:#f4e9d4" />
	<path
   class="st8"
   d="m 1089.5,291.1 c -0.7,0.1 -1.3,0.3 -1.9,0.6 -5.3,2.3 -32,14.4 -36.1,20.6 -4.5,6.9 -0.5,10.4 2.4,11.4 0,0 -10.2,8.1 -5.6,19.2 4.6,11.1 23.3,25.1 20.1,35.6 0,0 8.5,7.2 32,-5.8 23.5,-13 25.5,-12.3 29,-19.5 3.6,-7.2 7.9,-25.8 -0.1,-36.1 -8.1,-10.2 -11.2,-10.3 -11.2,-10.3 0,0 -4.7,-19.1 -28.6,-15.7 z"
   id="path4676"
   inkscape:connector-curvature="0"
   style="fill:#0fd40a" />
	<linearGradient
   id="SVGID_7_"
   gradientUnits="userSpaceOnUse"
   x1="1065.0813"
   y1="308.53751"
   x2="1202.6077"
   y2="308.53751">
		<stop
   offset="7.064254e-08"
   style="stop-color:#C1FFAD"
   id="stop4678" />
		<stop
   offset="0.1104"
   style="stop-color:#B8FDA5"
   id="stop4680" />
		<stop
   offset="0.2874"
   style="stop-color:#A1F790"
   id="stop4682" />
		<stop
   offset="0.509"
   style="stop-color:#7BEE6D"
   id="stop4684" />
		<stop
   offset="0.7638"
   style="stop-color:#46E13C"
   id="stop4686" />
		<stop
   offset="1"
   style="stop-color:#0FD40A"
   id="stop4688" />
	</linearGradient>
	<path
   class="st16"
   d="m 1065.1,207.7 c 0,0 16.9,-4.6 48.3,35.5 31.4,40.1 82,127.1 84.3,146.7 2.3,19.6 2.3,19.6 2.3,19.6 0,0 16.9,-33.5 -34.6,-107.7 -51.5,-74.2 -66.1,-96.8 -100.3,-94.1 z"
   id="path4691"
   inkscape:connector-curvature="0"
   style="fill:url(#SVGID_7_)" />
	<path
   class="st15"
   d="m 931.1,437.8 c 0,0 -1.3,6 -0.1,8.5 1.2,2.6 2.8,-3.1 2.8,-3.1 l 1,-6.6"
   id="path4693"
   inkscape:connector-curvature="0"
   style="fill:#f4e9d4" />
	<g
   id="g4697">
		
			<rect
   x="902.79999"
   y="473.70001"
   transform="matrix(0.7071,-0.7071,0.7071,0.7071,-91.3859,786.1411)"
   class="st17"
   width="1"
   height="59.299999"
   id="rect4695"
   style="fill:#59b279" />
	</g>
	<g
   id="g4701">
		
			<rect
   x="907.09998"
   y="469.29999"
   transform="matrix(0.7071,-0.7071,0.7071,0.7071,-87.0002,787.9576)"
   class="st17"
   width="1"
   height="59.299999"
   id="rect4699"
   style="fill:#59b279" />
	</g>
	<g
   id="g4705">
		
			<rect
   x="911.70001"
   y="464.79999"
   transform="matrix(0.7071,-0.7071,0.7071,0.7071,-82.4549,789.8409)"
   class="st17"
   width="1"
   height="59.299999"
   id="rect4703"
   style="fill:#59b279" />
	</g>
	<g
   id="g4709">
		
			<rect
   x="920.20001"
   y="456.29999"
   transform="matrix(0.7071,-0.7071,0.7071,0.7071,-73.91,793.3804)"
   class="st17"
   width="1"
   height="59.299999"
   id="rect4707"
   style="fill:#59b279" />
	</g>
	<g
   id="g4713">
		
			<rect
   x="942.90002"
   y="463.60001"
   transform="matrix(0.7111,-0.7031,0.7031,0.7111,-65.3021,802.1654)"
   class="st17"
   width="1"
   height="33.900002"
   id="rect4711"
   style="fill:#59b279" />
	</g>
	<linearGradient
   id="SVGID_8_"
   gradientUnits="userSpaceOnUse"
   x1="985.58661"
   y1="468.62399"
   x2="1007.0348"
   y2="468.62399">
		<stop
   offset="4.289012e-07"
   style="stop-color:#273282"
   id="stop4715" />
		<stop
   offset="0.9841"
   style="stop-color:#0F1238"
   id="stop4717" />
	</linearGradient>
	<path
   class="st18"
   d="m 985.6,480 c 0,0 13.9,-13.9 17.8,-22.7 l 3.6,3.4 z"
   id="path4720"
   inkscape:connector-curvature="0"
   style="fill:url(#SVGID_8_)" />
	<path
   class="st15"
   d="m 965,391 c 0,0 -0.9,6.3 0.8,10 1.7,3.8 12.5,13 19.1,15.9 6.6,2.9 26.8,41.9 28.3,44.7 1.5,2.8 9.3,12.6 15.8,14.5 6.4,1.9 19.3,-5.5 22.6,-10.1 3.2,-4.6 0.8,-18.4 -4.2,-23.6 -5,-5.2 -14.7,-8.5 -16.1,-10.3 -1.3,-1.8 -23.6,-18.1 -24.9,-19.9 -1.3,-1.8 -5.2,-6.2 -4.9,-10.3 0.3,-4.1 2.4,-3.5 0.3,-15.3 -2.1,-11.8 -2.3,-12.8 -2.3,-12.8 0,0 -3.7,-3.4 -4.7,1.9 -1.1,5.3 0.9,11 0,11.2 -1,0.2 -3.5,-2.4 -5.5,-8.2 -2,-5.7 -2.9,-10.7 -4.1,-11.5 -1.2,-0.8 -4.5,-2.3 -6.3,-0.9 -1.8,1.3 -2.4,3.5 -2.4,3.5 0,0 -5.1,-0.1 -6,6.2 -0.9,6.3 -0.3,4.1 -0.3,4.1 0,0 -5.8,1.9 -5.2,10.9 z"
   id="path4722"
   inkscape:connector-curvature="0"
   style="fill:#f4e9d4" />
	<path
   class="st15"
   d="m 983.2,366.1 c 0,0 10.2,4.5 11.9,6.9 1.7,2.4 -0.3,3.9 -2.4,3.8 -2.1,-0.1 -9.2,-2 -9.2,-2 z"
   id="path4724"
   inkscape:connector-curvature="0"
   style="fill:#f4e9d4" />
	<path
   class="st15"
   d="m 1082.6,425.9 -56.4,28.2 7.2,21.8 c 22.2,4.3 51.2,-9.3 73.1,-23.4 l -21,-27.9 c -1.9,0.8 -2.9,1.3 -2.9,1.3 z"
   id="path4726"
   inkscape:connector-curvature="0"
   style="fill:#f4e9d4" />
	<path
   class="st15"
   d="m 1047.2,442.4 c 0,0 25,-17.9 33.7,-23.1 l 18.4,23.5 -38.8,21.8 -12.1,-10.8 -1.2,-10.4"
   id="path4728"
   inkscape:connector-curvature="0"
   style="fill:#f4e9d4" />
	<path
   class="st19"
   d="M 1084.2,420.1"
   id="path4730"
   inkscape:connector-curvature="0"
   style="fill:#e2d1b3" />
	<path
   class="st7"
   d="m 1143.8,383.9 c -15.1,21.9 -62.9,35.4 -62.9,35.4 l 10.8,13.5 v 0 l 14.7,19.6 c 15.2,-9.8 26.9,-19.8 30.5,-24.3 7.4,-9.3 7.7,-20.5 8.5,-35.2 0.1,-0.5 -0.7,-5.5 -1.6,-9 z"
   id="path4732"
   inkscape:connector-curvature="0"
   style="fill:#ffffff" />
	<path
   class="st8"
   d="m 925.4,455.1 0.2,3.6 c 0,0 0,0 0,0 0,0.8 1.1,1.4 2.5,1.4 1.4,0 2.5,-0.6 2.5,-1.4 0,-0.1 0,-0.2 0,-0.3 l 0.1,-0.1 0.1,-3.4 c -0.5,0 -1.1,0.1 -1.8,0.2 -1.4,0.2 -2.5,0.1 -3.6,0 z"
   id="path4734"
   inkscape:connector-curvature="0"
   style="fill:#0fd40a" />
	<path
   class="st15"
   d="m 931.5,447.1 c 2.2,2.2 6.7,-9 6.7,-9 0,0 -0.9,-6.3 -2.3,-8.9 -1.4,-2.7 -8.6,-10.2 -12.1,-12.9 -3.6,-2.7 -5.4,-6.2 -4.5,-11.2 0.8,-4.8 11.6,-59.5 12.8,-93.7 11.6,-0.2 29.5,-0.6 46.1,-1.2 -0.3,-16.2 -2.1,-32.4 -3.1,-48.6 -13.8,2.8 -27.3,6 -38.3,9.2 -1,0.2 -2.1,0.4 -3.1,0.5 0,0 -0.1,0 -0.1,0 -8.7,2.9 -17.2,6 -25.2,10.5 -1.9,2.1 -3.5,4.4 -4.8,7 -0.1,0.1 -0.1,0.2 -0.2,0.4 -0.3,1.1 -0.7,2.2 -1.2,3.3 -0.7,1.5 -1.4,3 -2.2,4.5 -0.5,1.9 -0.9,3.7 -1.4,5.5 -1.8,17.1 -4.2,51.1 0.7,88.6 0,0 1,21.9 -0.3,28.2 -1.3,6.3 -3.1,9.4 2.8,21 5.9,11.6 6.3,12.5 6.3,12.5 0,0 2.2,2.2 5.8,0.4 0,0 2,2.9 6,-0.3 0,0 3.6,2.7 9,2.2 5.4,-0.5 5.4,-0.5 5.4,-0.5 0,0 0.4,-1.3 -1.4,-2.7 -1.8,-1.3 -7.2,-3.1 -7.2,-3.1 0,0 -2.7,-5.4 -2.3,-6.7 0.4,-1.3 2.6,-8.1 2.6,-8.1 0,0 3.6,0.4 4.5,2.2 0.9,2 -1.3,8.7 1,10.9 z"
   id="path4736"
   inkscape:connector-curvature="0"
   style="fill:#f4e9d4" />
	<polygon
   class="st4"
   points="930.1,459.9 930.9,449.6 929.8,446.2 929,446.2 929,460.6 "
   id="polygon4738"
   style="fill:#0f1238" />
	<path
   class="st4"
   d="m 929,453.5 c 0,0 0.7,7.1 -0.9,11.4 0,0 2.4,-3.3 2.6,-7.2 0.2,-3.9 0.3,-8.1 0.3,-8.1 z"
   id="path4740"
   inkscape:connector-curvature="0"
   style="fill:#0f1238" />
	<path
   class="st20"
   d="m 924.6,439.8 v -1.2 c -0.5,1.6 -1,3.1 -1.2,3.7 -0.3,0.9 0.8,3.6 1.6,5.3 l -0.4,-7.4 z"
   id="path4742"
   inkscape:connector-curvature="0"
   style="fill:none" />
	<path
   class="st8"
   d="m 929,421.1 v -10.4 c -1.3,0.3 -3.1,0.2 -5.5,-1.1 l 0.3,6.7 c 1.3,1.1 3.3,2.8 5.2,4.8 z"
   id="path4744"
   inkscape:connector-curvature="0"
   style="fill:#0fd40a" />
	<path
   class="st8"
   d="m 929,435 c -1.3,-0.7 -3,-0.9 -3,-0.9 0,0 -0.7,2.3 -1.4,4.4 v 1.2 0.3 l 0.4,7.4 c 0.4,0.8 0.7,1.4 0.7,1.4 0,0 1.6,0.5 3.3,1.2 v 0 z"
   id="path4746"
   inkscape:connector-curvature="0"
   style="fill:#0fd40a" />
	<path
   class="st4"
   d="m 929,410.1 v 0.6 c 1.1,-0.3 1.8,-0.8 2.1,-1 z"
   id="path4748"
   inkscape:connector-curvature="0"
   style="fill:#0f1238" />
	<path
   class="st4"
   d="m 930.9,446.3 c 0,-0.1 -0.1,-0.1 -0.1,-0.2 l -0.1,4.7 c 0,0 0.1,0 0.1,0 v 0 z"
   id="path4750"
   inkscape:connector-curvature="0"
   style="fill:#0f1238" />
	<path
   class="st4"
   d="M 931.1,423.3 V 409.6 H 931 c -0.2,0.2 -0.9,0.8 -2.1,1 V 421 c 0.8,0.8 1.5,1.6 2.2,2.3 z"
   id="path4752"
   inkscape:connector-curvature="0"
   style="fill:#0f1238" />
	<path
   class="st4"
   d="m 930.5,436.4 c -0.3,-0.6 -0.9,-1 -1.5,-1.3 v 15.1 0 c 0.6,0.2 1.2,0.5 1.8,0.7 l 0.1,-4.7 c -1.2,-2.8 0.4,-8.2 -0.4,-9.8 z"
   id="path4754"
   inkscape:connector-curvature="0"
   style="fill:#0f1238" />
	<path
   class="st15"
   d="m 930.7,455 c 3.5,-0.3 3.5,-0.3 3.5,-0.3 0,0 0.4,-1.3 -1.4,-2.7 -0.5,-0.3 -1.2,-0.7 -2,-1.1 h -0.1 z"
   id="path4756"
   inkscape:connector-curvature="0"
   style="fill:#f4e9d4" />
	<path
   class="st8"
   d="m 924.6,438.6 c 0.7,-2.2 1.4,-4.4 1.4,-4.4 0,0 1.6,0.2 3,0.9 v -14 c -1.9,-1.9 -3.9,-3.7 -5.3,-4.8 l 0.7,18.2 z"
   id="path4758"
   inkscape:connector-curvature="0"
   style="fill:#0fd40a" />
	<path
   class="st15"
   d="m 929,450.1 c -1.7,-0.7 -3.3,-1.2 -3.3,-1.2 0,0 -0.3,-0.6 -0.7,-1.4 l 0.1,1.7 v 0.4 l 0.3,5.5 c 1,0.2 2.2,0.2 3.4,0.1 0.7,-0.1 1.3,-0.1 1.8,-0.2 l 0.1,-4.1 z"
   id="path4760"
   inkscape:connector-curvature="0"
   style="fill:#f4e9d4" />
	<path
   class="st15"
   d="m 930.8,450.9 h 0.1 c -0.1,0 -0.1,0 -0.1,0 z"
   id="path4762"
   inkscape:connector-curvature="0"
   style="fill:#f4e9d4" />
	<path
   class="st15"
   d="m 931.1,435.2 -0.2,11 c 0,0.1 0.1,0.1 0.1,0.2 l 0.3,-22.9 c 0,0 -0.1,-0.1 -0.1,-0.1 z"
   id="path4764"
   inkscape:connector-curvature="0"
   style="fill:#f4e9d4" />
	<path
   class="st15"
   d="m 930.8,450.9 v 0 c -0.6,-0.3 -1.2,-0.5 -1.8,-0.7 z"
   id="path4766"
   inkscape:connector-curvature="0"
   style="fill:#f4e9d4" />
	<path
   class="st4"
   d="m 931.1,423.3 c -0.7,-0.7 -1.4,-1.5 -2.1,-2.2 v 14 c 0.6,0.3 1.2,0.8 1.5,1.3 0.8,1.6 -0.8,7 0.3,9.8 l 0.2,-11 z"
   id="path4768"
   inkscape:connector-curvature="0"
   style="fill:#0f1238" />
	<ellipse
   class="st4"
   cx="927.29999"
   cy="409.60001"
   rx="3.9000001"
   ry="2"
   id="ellipse4770"
   style="fill:#0f1238" />
	<path
   class="st4"
   d="m 1118,306.8 c 0,0 -23.8,-14.6 -50.9,3.7 0,0 -8.2,4.1 -6.2,10 0.8,2.4 5.7,2.6 5.7,2.6 0,0 -9.1,13.3 1.6,22.2 12.5,10.5 5.4,29.3 2.4,32.8 0,0 5.9,1.6 13.7,-0.9 14.4,-4.7 29.9,-12.5 41.3,-22.4 0.4,-0.3 0.7,-0.7 0.9,-1.1 1.7,-3.1 8.3,-17.1 2.3,-32.5 0,0 -3.6,-9.8 -10.8,-14.4 z"
   id="path4772"
   inkscape:connector-curvature="0"
   style="fill:#0f1238" />
</g>
<g
   id="g4990"
   transform="translate(-369.4453,89.3)">
	<g
   id="XMLID_2_">
		<g
   id="XMLID_5_">
			<path
   class="st7"
   d="m 637.2,657.6 -47.9,-22.7 45.9,21.7 -13.2,27.8 -47.3,-22.4 13.2,-27.7 -2.1,-1 c -1.7,-0.8 -3.8,-0.1 -4.6,1.6 L 571,656.5 c -0.8,1.7 -0.1,3.8 1.6,4.6 l 51.4,24.3 c 1.7,0.8 3.8,0.1 4.6,-1.6 l 10.2,-21.5 c 0.8,-1.8 0.1,-3.9 -1.6,-4.7 z"
   id="path4776"
   inkscape:connector-curvature="0"
   style="fill:#ffffff" />
			<g
   id="XMLID_14_">
				<path
   class="st8"
   d="m 629.6,674.4 2.9,-6.2 c 0.1,-0.2 0.3,-0.2 0.4,-0.2 v 0 c 0.2,0.1 0.2,0.3 0.2,0.4 l -2.9,6.2 c -0.1,0.2 -0.3,0.2 -0.4,0.2 v 0 c -0.2,0 -0.2,-0.2 -0.2,-0.4 z"
   id="path4778"
   inkscape:connector-curvature="0"
   style="fill:#0fd40a" />
			</g>
			<g
   id="XMLID_13_">
				<path
   class="st8"
   d="m 577.2,649.5 2.6,-5.4 c 0.1,-0.2 0.3,-0.2 0.5,-0.2 v 0 c 0.2,0.1 0.2,0.3 0.2,0.5 l -2.6,5.4 c -0.1,0.2 -0.3,0.2 -0.5,0.2 v 0 c -0.2,-0.1 -0.3,-0.3 -0.2,-0.5 z"
   id="path4781"
   inkscape:connector-curvature="0"
   style="fill:#0fd40a" />
			</g>
			<g
   id="XMLID_10_">
				<path
   id="XMLID_12_"
   class="st8"
   d="m 628.8,677.2 c -0.3,-0.2 -0.5,-0.6 -0.3,-0.9 0.1,-0.2 0.2,-0.3 0.4,-0.4 0.2,-0.1 0.4,-0.1 0.5,0 0.2,0.1 0.3,0.2 0.4,0.4 0.1,0.2 0.1,0.4 0,0.5 -0.2,0.4 -0.6,0.5 -1,0.4 z"
   inkscape:connector-curvature="0"
   style="fill:#0fd40a" />
				<path
   class="st8"
   d="m 629.8,676.3 c 0.1,0.2 0.1,0.4 0,0.5 -0.2,0.3 -0.6,0.5 -0.9,0.3 0,0 0,0 0,0 -0.1,-0.1 -0.2,-0.1 -0.2,-0.2 -0.1,-0.1 -0.1,-0.3 -0.1,-0.5 0,-0.1 0,-0.1 0.1,-0.2 0,-0.1 0.1,-0.2 0.2,-0.2 0,0 0.1,-0.1 0.2,-0.1 0,0 0,0 0,0 0,0 0,0 0,0 0.1,0 0.2,0 0.3,0 0.1,0 0.2,0 0.3,0.1 -0.1,0 0,0.1 0.1,0.3 z"
   id="path4785"
   inkscape:connector-curvature="0"
   style="fill:#0fd40a" />
				<path
   class="st8"
   d="m 629.8,676.3 c 0.1,0.2 0.1,0.4 0,0.5 -0.2,0.3 -0.6,0.5 -0.9,0.3 0,0 0,0 0,0 -0.1,-0.1 -0.2,-0.1 -0.2,-0.2 -0.1,-0.1 -0.1,-0.3 -0.1,-0.5 0,-0.1 0,-0.1 0.1,-0.2 0,-0.1 0.1,-0.2 0.2,-0.2 0,0 0.1,-0.1 0.2,-0.1 0,0 0,0 0,0 0,0 0,0 0,0 0.1,0 0.2,0 0.3,0 0.1,0 0.2,0 0.3,0.1 -0.1,0 0,0.1 0.1,0.3 z"
   id="path4787"
   inkscape:connector-curvature="0"
   style="fill:#0fd40a" />
				<path
   class="st8"
   d="m 629.8,676.3 c 0.1,0.2 0.1,0.4 0,0.5 -0.2,0.3 -0.6,0.5 -0.9,0.3 0,0 0,0 0,0 -0.1,-0.1 -0.2,-0.1 -0.2,-0.2 -0.1,-0.1 -0.1,-0.3 -0.1,-0.5 0,-0.1 0,-0.1 0.1,-0.2 0,-0.1 0.1,-0.2 0.2,-0.2 0,0 0.1,-0.1 0.1,-0.1 0,0 0,0 0,0 0,0 0,0 0,0 0.1,0 0.2,0 0.3,0 0.1,0 0.2,0 0.3,0.1 0,0 0.1,0.1 0.2,0.3 z"
   id="path4789"
   inkscape:connector-curvature="0"
   style="fill:#0fd40a" />
				<path
   class="st8"
   d="m 629.8,676.3 c 0.1,0.2 0.1,0.4 0,0.5 -0.2,0.3 -0.6,0.5 -0.9,0.3 0,0 0,0 0,0 -0.1,-0.1 -0.2,-0.1 -0.2,-0.2 -0.1,-0.1 -0.1,-0.3 -0.1,-0.5 0,-0.1 0,-0.1 0.1,-0.2 0,-0.1 0.1,-0.2 0.1,-0.2 0,0 0.1,-0.1 0.1,-0.1 0,0 0,0 0,0 0,0 0,0 0,0 0.1,0 0.2,0 0.3,0 0.1,0 0.2,0 0.3,0.1 0.1,0 0.2,0.1 0.3,0.3 z"
   id="path4791"
   inkscape:connector-curvature="0"
   style="fill:#0fd40a" />
				<path
   class="st8"
   d="m 629.8,676.3 c 0.1,0.2 0.1,0.4 0,0.5 -0.2,0.3 -0.5,0.5 -0.9,0.3 0,0 0,0 0,0 -0.1,-0.1 -0.1,-0.1 -0.2,-0.2 -0.1,-0.1 -0.1,-0.3 -0.1,-0.5 0,-0.1 0,-0.1 0,-0.2 0,-0.1 0.1,-0.2 0.1,-0.2 0,0 0.1,-0.1 0.1,-0.1 0,0 0,0 0,0 0,0 0,0 0,0 0.1,0 0.2,0 0.3,0 0.1,0 0.2,0 0.3,0.1 0.2,0 0.3,0.1 0.4,0.3 z"
   id="path4793"
   inkscape:connector-curvature="0"
   style="fill:#0fd40a" />
				<path
   class="st8"
   d="m 629.8,676.3 c 0.1,0.2 0.1,0.4 0,0.5 -0.2,0.3 -0.5,0.5 -0.9,0.3 0,0 0,0 0,0 -0.1,-0.1 -0.1,-0.1 -0.2,-0.2 -0.1,-0.1 -0.1,-0.3 -0.1,-0.5 0,-0.1 0,-0.1 0,-0.2 0,-0.1 0.1,-0.2 0.1,-0.2 0,0 0.1,-0.1 0.1,-0.1 0,0 0,0 0,0 0,0 0,0 0,0 0.1,0 0.2,0 0.3,0 0.1,0 0.2,0 0.3,0.1 0.2,0 0.3,0.1 0.4,0.3 z"
   id="path4795"
   inkscape:connector-curvature="0"
   style="fill:#0fd40a" />
				<path
   class="st8"
   d="m 629.8,676.3 c 0.1,0.2 0.1,0.4 0,0.5 -0.2,0.3 -0.5,0.5 -0.8,0.3 0,0 0,0 0,0 -0.1,-0.1 -0.1,-0.1 -0.2,-0.2 -0.1,-0.1 -0.1,-0.3 -0.1,-0.5 0,-0.1 0,-0.1 0,-0.2 0,-0.1 0.1,-0.2 0.1,-0.2 0,0 0.1,-0.1 0.1,-0.1 0,0 0,0 0,0 0,0 0,0 0,0 0.1,0 0.2,0 0.2,0 0.1,0 0.2,0 0.3,0.1 0.2,0 0.3,0.1 0.4,0.3 z"
   id="path4797"
   inkscape:connector-curvature="0"
   style="fill:#0fd40a" />
				<path
   class="st8"
   d="m 629.8,676.3 c 0.1,0.2 0.1,0.4 0,0.5 -0.2,0.3 -0.5,0.5 -0.8,0.3 0,0 0,0 0,0 -0.1,-0.1 -0.1,-0.1 -0.2,-0.2 -0.1,-0.1 -0.1,-0.3 -0.1,-0.5 0,-0.1 0,-0.1 0,-0.2 0,-0.1 0.1,-0.2 0.1,-0.2 0,0 0.1,-0.1 0.1,-0.1 0,0 0,0 0,0 0,0 0,0 0,0 0.1,0 0.2,0 0.2,0 0.1,0 0.2,0 0.3,0.1 0.2,0 0.3,0.1 0.4,0.3 z"
   id="path4799"
   inkscape:connector-curvature="0"
   style="fill:#0fd40a" />
				<path
   class="st8"
   d="m 629.8,676.3 c 0.1,0.2 0.1,0.4 0,0.5 -0.1,0.3 -0.5,0.5 -0.8,0.3 0,0 0,0 0,0 -0.1,-0.1 -0.1,-0.1 -0.2,-0.2 -0.1,-0.1 -0.1,-0.3 -0.1,-0.5 0,-0.1 0,-0.1 0,-0.2 0,-0.1 0.1,-0.2 0.1,-0.2 0,0 0.1,-0.1 0.1,-0.1 0,0 0,0 0,0 0,0 0,0 0,0 0.1,0 0.2,0 0.2,0 0.1,0 0.2,0 0.3,0.1 0.2,0 0.3,0.1 0.4,0.3 z"
   id="path4801"
   inkscape:connector-curvature="0"
   style="fill:#0fd40a" />
				<path
   class="st8"
   d="m 629.8,676.3 c 0.1,0.2 0.1,0.4 0,0.5 -0.1,0.3 -0.5,0.5 -0.8,0.3 0,0 0,0 0,0 -0.1,-0.1 -0.1,-0.1 -0.1,-0.2 -0.1,-0.1 -0.1,-0.3 -0.1,-0.5 0,-0.1 0,-0.1 0,-0.2 0,-0.1 0.1,-0.2 0.1,-0.2 0,0 0.1,-0.1 0.1,-0.1 0,0 0,0 0,0 0,0 0,0 0,0 0.1,0 0.2,0 0.2,0 0.1,0 0.2,0 0.3,0.1 0.1,0 0.2,0.1 0.3,0.3 z"
   id="path4803"
   inkscape:connector-curvature="0"
   style="fill:#0fd40a" />
				<path
   class="st8"
   d="m 629.8,676.3 c 0.1,0.2 0.1,0.4 0,0.5 -0.1,0.3 -0.5,0.4 -0.8,0.3 0,0 0,0 0,0 -0.1,-0.1 -0.1,-0.1 -0.1,-0.2 -0.1,-0.1 -0.1,-0.3 -0.1,-0.5 0,-0.1 0,-0.1 0,-0.2 0,-0.1 0.1,-0.2 0.1,-0.2 0,0 0.1,-0.1 0.1,-0.1 0,0 0,0 0,0 0,0 0,0 0,0 0.1,0 0.2,0 0.2,0 0.1,0 0.2,0 0.3,0.1 0.1,0 0.2,0.1 0.3,0.3 z"
   id="path4805"
   inkscape:connector-curvature="0"
   style="fill:#0fd40a" />
				<path
   class="st8"
   d="m 629.8,676.3 c 0.1,0.2 0.1,0.4 0,0.5 -0.1,0.3 -0.5,0.4 -0.8,0.3 0,0 0,0 0,0 0,-0.1 -0.1,-0.1 -0.1,-0.2 -0.1,-0.1 -0.1,-0.3 -0.1,-0.5 0,-0.1 0,-0.1 0,-0.2 0,-0.1 0,-0.2 0.1,-0.2 0,0 0.1,-0.1 0.1,-0.1 0,0 0,0 0,0 0,0 0,0 0,0 0.1,0 0.2,0 0.2,0 0.1,0 0.2,0 0.3,0.1 0.1,0 0.2,0.1 0.3,0.3 z"
   id="path4807"
   inkscape:connector-curvature="0"
   style="fill:#0fd40a" />
				<path
   class="st8"
   d="m 629.8,676.3 c 0.1,0.2 0.1,0.4 0,0.5 -0.1,0.3 -0.5,0.4 -0.8,0.3 0,0 0,0 0,0 0,-0.1 -0.1,-0.1 -0.1,-0.2 0,-0.1 -0.1,-0.3 -0.1,-0.5 0,-0.1 0,-0.1 0,-0.2 0,-0.1 0,-0.2 0.1,-0.2 0,0 0,-0.1 0.1,-0.1 0,0 0,0 0,0 0,0 0,0 0,0 0.1,0 0.2,0 0.2,0 0.1,0 0.2,0 0.3,0.1 0.1,0 0.2,0.1 0.3,0.3 z"
   id="path4809"
   inkscape:connector-curvature="0"
   style="fill:#0fd40a" />
				<path
   class="st8"
   d="m 629.8,676.3 c 0.1,0.2 0.1,0.4 0,0.5 -0.1,0.3 -0.5,0.4 -0.8,0.3 0,0 0,0 0,0 0,-0.1 -0.1,-0.1 -0.1,-0.2 0,-0.1 -0.1,-0.3 -0.1,-0.5 0,-0.1 0,-0.1 0,-0.2 0,-0.1 0,-0.2 0.1,-0.2 0,0 0,-0.1 0.1,-0.1 0,0 0,0 0,0 0,0 0,0 0,0 0.1,0 0.2,0 0.2,0 0.1,0 0.2,0.1 0.3,0.1 0.1,0 0.2,0.1 0.3,0.3 z"
   id="path4811"
   inkscape:connector-curvature="0"
   style="fill:#0fd40a" />
				<path
   class="st8"
   d="m 629.8,676.3 c 0.1,0.2 0.1,0.4 0,0.5 -0.1,0.3 -0.5,0.4 -0.8,0.3 0,0 0,0 0,0 0,-0.1 -0.1,-0.1 -0.1,-0.2 0,-0.2 -0.1,-0.3 -0.1,-0.5 0,-0.1 0,-0.1 0,-0.2 0,-0.1 0,-0.2 0.1,-0.2 0,0 0,-0.1 0.1,-0.1 0,0 0,0 0,0 0,0 0,0 0,0 0.1,0 0.2,0 0.2,0 0.1,0 0.2,0.1 0.3,0.1 0.1,0 0.2,0.1 0.3,0.3 z"
   id="path4813"
   inkscape:connector-curvature="0"
   style="fill:#0fd40a" />
				<path
   class="st8"
   d="m 629.8,676.3 c 0.1,0.2 0.1,0.4 0,0.5 -0.1,0.3 -0.5,0.4 -0.7,0.3 0,0 0,0 0,0 0,-0.1 -0.1,-0.1 -0.1,-0.2 0,-0.2 -0.1,-0.3 -0.1,-0.5 0,-0.1 0,-0.1 0,-0.2 0,-0.1 0,-0.2 0,-0.2 0,0 0,-0.1 0,-0.1 0,0 0,0 0,0 0,0 0,0 0,0 0.1,0 0.2,0 0.2,0 0.1,0 0.2,0.1 0.3,0.1 0.2,0 0.3,0.1 0.4,0.3 z"
   id="path4815"
   inkscape:connector-curvature="0"
   style="fill:#0fd40a" />
				<path
   class="st8"
   d="m 629.8,676.3 c 0.1,0.2 0.1,0.4 0,0.5 -0.1,0.3 -0.4,0.4 -0.7,0.3 0,0 0,0 0,0 0,-0.1 0,-0.1 -0.1,-0.2 0,-0.2 -0.1,-0.3 -0.1,-0.5 0,-0.1 0,-0.1 0,-0.2 0,-0.1 0,-0.2 0,-0.2 0,0 0,-0.1 0,-0.1 0,0 0,0 0,0 0,0 0,0 0,0 0.1,0 0.2,0 0.2,0 0.1,0 0.2,0.1 0.3,0.1 0.2,0 0.3,0.2 0.4,0.3 z"
   id="path4817"
   inkscape:connector-curvature="0"
   style="fill:#0fd40a" />
				<path
   class="st8"
   d="m 629.8,676.3 c 0.1,0.2 0.1,0.4 0,0.5 -0.1,0.3 -0.4,0.4 -0.7,0.3 0,0 0,0 0,0 0,-0.1 0,-0.1 -0.1,-0.2 0,-0.2 0,-0.3 0,-0.5 0,-0.1 0,-0.1 0,-0.2 0,-0.1 0,-0.2 0,-0.2 0,0 0,-0.1 0,-0.1 0,0 0,0 0,0 0,0 0,0 0,0 0.1,0 0.2,0 0.2,0 0.1,0 0.2,0.1 0.3,0.1 0.1,0 0.2,0.2 0.3,0.3 z"
   id="path4819"
   inkscape:connector-curvature="0"
   style="fill:#0fd40a" />
				<path
   class="st8"
   d="m 629.8,676.3 c 0.1,0.2 0.1,0.4 0,0.5 -0.1,0.3 -0.4,0.4 -0.7,0.3 0,0 0,0 0,0 0,-0.1 0,-0.1 0,-0.2 0,-0.2 0,-0.3 0,-0.5 0,-0.1 0,-0.1 0,-0.2 0,-0.1 0,-0.2 0,-0.2 0,0 0,-0.1 0,-0.1 0,0 0,0 0,0 0,0 0,0 0,0 0.1,0 0.2,0 0.2,0 0.1,0 0.2,0.1 0.3,0.1 0,0 0.1,0.2 0.2,0.3 z"
   id="path4821"
   inkscape:connector-curvature="0"
   style="fill:#0fd40a" />
				<path
   class="st8"
   d="m 629.8,676.3 c 0.1,0.2 0.1,0.4 0,0.5 -0.1,0.3 -0.4,0.4 -0.7,0.3 0,0 0,0 0,0 0,-0.1 0,-0.1 0,-0.2 0,-0.2 0,-0.3 0,-0.5 0,-0.1 0,-0.1 0,-0.2 0,-0.1 0,-0.2 0,-0.2 0,0 0,-0.1 0,-0.1 0,0 0,0 0,0 0,0 0,0 0,0 0.1,0 0.2,0 0.2,0 0.1,0 0.2,0.1 0.3,0.1 0,0 0.1,0.2 0.2,0.3 z"
   id="path4823"
   inkscape:connector-curvature="0"
   style="fill:#0fd40a" />
				<path
   class="st8"
   d="m 629.8,676.3 c 0.1,0.2 0.1,0.4 0,0.5 -0.1,0.3 -0.4,0.4 -0.7,0.3 0,0 0,0 0,0 0,-0.1 0,-0.1 0,-0.2 0,-0.2 0,-0.3 0,-0.5 0,-0.1 0,-0.1 0,-0.2 0,-0.1 0,-0.2 0,-0.2 0,0 0,-0.1 0,-0.1 0,0 0,0 0,0 0,0 0,0 0,0 0.1,0 0.2,0 0.2,0 0.1,0 0.2,0.1 0.3,0.1 0,0 0.1,0.2 0.2,0.3 z"
   id="path4825"
   inkscape:connector-curvature="0"
   style="fill:#0fd40a" />
				<path
   class="st8"
   d="m 629.8,676.3 c 0.1,0.2 0.1,0.4 0,0.5 -0.1,0.3 -0.4,0.4 -0.7,0.3 0,0 0,0 0,0 0,-0.1 0,-0.1 0,-0.2 0,-0.2 0,-0.3 0,-0.5 0,-0.1 0,-0.1 0,-0.2 0,-0.1 0,-0.2 0,-0.2 0,0 0,-0.1 0,-0.1 0,0 0,0 0,0 0,0 0,0 0,0 0.1,0 0.2,0 0.2,0 0.1,0 0.2,0.1 0.3,0.1 0,0.1 0.1,0.2 0.2,0.3 z"
   id="path4827"
   inkscape:connector-curvature="0"
   style="fill:#0fd40a" />
				<path
   class="st8"
   d="m 629.8,676.3 c 0.1,0.2 0.1,0.4 0,0.5 -0.1,0.3 -0.4,0.4 -0.7,0.3 0,0 0,0 0,0 0,-0.1 0,-0.1 0,-0.2 0,-0.2 0,-0.3 0,-0.5 0,-0.1 0,-0.1 0,-0.2 0,-0.1 0,-0.2 0,-0.2 0,0 0,-0.1 0,-0.1 0,0 0,0 0,0 0,0 0,0 0,0 0.1,0 0.2,0 0.2,0 0.1,0 0.2,0.1 0.3,0.1 0,0.1 0.1,0.2 0.2,0.3 z"
   id="path4829"
   inkscape:connector-curvature="0"
   style="fill:#0fd40a" />
				<path
   class="st8"
   d="m 629.8,676.3 c 0.1,0.2 0.1,0.4 0,0.5 -0.1,0.3 -0.4,0.4 -0.6,0.4 0,0 0,0 0,0 0,-0.1 0,-0.1 0,-0.2 0,-0.2 0,-0.3 0,-0.5 0,-0.1 0,-0.1 0,-0.2 0,-0.1 0,-0.2 0,-0.2 0,0 0,-0.1 0,-0.1 0,0 0,0 0,0 0,0 0,0 0,0 0.1,0 0.2,0 0.2,0 0.1,0 0.2,0.1 0.2,0.1 0,0 0.1,0.1 0.2,0.2 z"
   id="path4831"
   inkscape:connector-curvature="0"
   style="fill:#0fd40a" />
				<path
   class="st8"
   d="m 629.8,676.3 c 0.1,0.2 0.1,0.4 0,0.5 -0.1,0.3 -0.4,0.4 -0.6,0.4 0,0 0,0 0,0 0,-0.1 0,-0.1 0,-0.2 0,-0.2 0,-0.3 0,-0.5 0,-0.1 0,-0.1 0,-0.2 0,-0.1 0,-0.2 0,-0.2 0,0 0,-0.1 0,-0.1 0,0 0,0 0,0 0,0 0,0 0,0 0.1,0 0.2,0 0.2,0 0.1,0 0.2,0.1 0.2,0.1 0,0 0.1,0.1 0.2,0.2 z"
   id="path4833"
   inkscape:connector-curvature="0"
   style="fill:#0fd40a" />
				<path
   class="st8"
   d="m 629.8,676.3 c 0.1,0.2 0.1,0.4 0,0.5 -0.1,0.2 -0.4,0.4 -0.6,0.4 0,0 0,0 0,0 0,-0.1 0,-0.1 0,-0.2 0,-0.2 0,-0.3 0,-0.5 0,-0.1 0,-0.1 0,-0.2 0,-0.1 0,-0.2 0,-0.2 0,0 0,-0.1 0,-0.1 0,0 0,0 0,0 0,0 0,0 0,0 0.1,0 0.2,0 0.2,0 0.1,0 0.2,0.1 0.2,0.1 0.1,0 0.1,0.1 0.2,0.2 z"
   id="path4835"
   inkscape:connector-curvature="0"
   style="fill:#0fd40a" />
				<path
   class="st8"
   d="m 629.8,676.3 c 0.1,0.2 0.1,0.4 0,0.5 -0.1,0.2 -0.4,0.4 -0.6,0.4 0,0 0,0 0,0 0,-0.1 0,-0.1 0,-0.2 0,-0.2 0,-0.3 0,-0.5 0,-0.1 0,-0.1 0,-0.2 0,-0.1 0,-0.2 0,-0.2 0,0 0,-0.1 0,-0.1 0,0 0,0 0,0 0,0 0,0 0,0 0.1,0 0.2,0 0.2,0 0.1,0 0.2,0.1 0.2,0.1 0.1,0 0.1,0.1 0.2,0.2 z"
   id="path4837"
   inkscape:connector-curvature="0"
   style="fill:#0fd40a" />
				<path
   class="st8"
   d="m 629.8,676.3 c 0.1,0.2 0.1,0.4 0,0.5 -0.1,0.2 -0.4,0.4 -0.6,0.4 0,0 0,0 0,0 0,-0.1 0,-0.1 0.1,-0.2 0,-0.2 0,-0.3 0,-0.5 0,-0.1 0,-0.1 0,-0.2 0,-0.1 0,-0.2 -0.1,-0.2 0,0 0,-0.1 0,-0.1 0,0 0,0 0,0 0,0 0,0 0,0 0.1,0 0.2,0 0.2,0 0.1,0 0.2,0.1 0.2,0.1 0.1,0 0.1,0.1 0.2,0.2 z"
   id="path4839"
   inkscape:connector-curvature="0"
   style="fill:#0fd40a" />
				<path
   class="st8"
   d="m 629.8,676.3 c 0.1,0.2 0.1,0.4 0,0.5 -0.1,0.2 -0.4,0.4 -0.6,0.4 0,0 0,0 0,0 0,-0.1 0.1,-0.1 0.1,-0.2 0,-0.2 0,-0.3 0,-0.5 0,-0.1 0,-0.1 0,-0.2 0,-0.1 0,-0.2 -0.1,-0.2 0,0 0,-0.1 -0.1,-0.1 0,0 0,0 0,0 0,0 0,0 0,0 0.1,0 0.2,0 0.2,0 0.1,0 0.2,0.1 0.2,0.1 0.2,0 0.2,0.1 0.3,0.2 z"
   id="path4841"
   inkscape:connector-curvature="0"
   style="fill:#0fd40a" />
				<path
   class="st8"
   d="m 629.8,676.3 c 0.1,0.2 0.1,0.4 0,0.5 -0.1,0.2 -0.3,0.4 -0.6,0.4 0,0 0,0 0,0 0,-0.1 0.1,-0.1 0.1,-0.2 0,-0.2 0,-0.3 0,-0.5 0,-0.1 0,-0.1 0,-0.2 0,-0.1 0,-0.2 -0.1,-0.2 0,0 0,-0.1 -0.1,-0.1 0,0 0,0 0,0 0,0 0,0 0,0 0.1,0 0.2,0 0.2,0 0.1,0 0.2,0.1 0.2,0.1 0.2,0 0.2,0.1 0.3,0.2 z"
   id="path4843"
   inkscape:connector-curvature="0"
   style="fill:#0fd40a" />
				<path
   class="st8"
   d="m 629.8,676.3 c 0.1,0.2 0.1,0.4 0,0.5 -0.1,0.2 -0.3,0.4 -0.6,0.4 0,0 0,0 0,0 0,-0.1 0.1,-0.1 0.1,-0.2 0,-0.2 0,-0.3 0,-0.5 0,-0.1 0,-0.1 0,-0.2 0,-0.1 0,-0.2 -0.1,-0.2 0,0 0,-0.1 -0.1,-0.1 0,0 0,0 0,0 0,0 0,0 0,0 0.1,0 0.2,0 0.2,0 0.1,0 0.2,0.1 0.2,0.1 0.2,0 0.2,0.1 0.3,0.2 z"
   id="path4845"
   inkscape:connector-curvature="0"
   style="fill:#0fd40a" />
				<path
   class="st8"
   d="m 629.8,676.3 c 0.1,0.2 0.1,0.4 0,0.5 -0.1,0.2 -0.3,0.4 -0.5,0.4 0,0 0,0 0,0 0,-0.1 0.1,-0.1 0.1,-0.2 0,-0.2 0,-0.3 0,-0.5 0,-0.1 0,-0.1 0,-0.2 0,-0.1 -0.1,-0.2 -0.1,-0.2 0,0 0,-0.1 -0.1,-0.1 0,0 0,0 0,0 0,0 0,0 0,0 0.1,0 0.2,0 0.2,0 0.1,0 0.2,0.1 0.2,0.1 0.1,0 0.1,0.1 0.2,0.2 z"
   id="path4847"
   inkscape:connector-curvature="0"
   style="fill:#0fd40a" />
				<path
   class="st8"
   d="m 629.8,676.3 c 0.1,0.2 0.1,0.4 0,0.5 -0.1,0.2 -0.3,0.4 -0.5,0.4 0,0 0,0 0,0 0,-0.1 0.1,-0.1 0.1,-0.2 0,-0.2 0,-0.3 0,-0.5 0,-0.1 0,-0.1 0,-0.2 0,-0.1 -0.1,-0.2 -0.1,-0.2 0,0 -0.1,-0.1 -0.1,-0.1 0,0 0,0 0,0 0,0 0,0 0,0 0.1,0 0.2,0 0.2,0 0.1,0 0.2,0.1 0.2,0.1 0.1,0 0.1,0.1 0.2,0.2 z"
   id="path4849"
   inkscape:connector-curvature="0"
   style="fill:#0fd40a" />
				<path
   class="st8"
   d="m 629.8,676.3 c 0.1,0.2 0.1,0.4 0,0.5 -0.1,0.2 -0.3,0.3 -0.5,0.4 0,0 0,0 0,0 0,-0.1 0.1,-0.1 0.1,-0.2 0,-0.2 0.1,-0.3 0,-0.5 0,-0.1 0,-0.1 0,-0.2 0,-0.1 -0.1,-0.2 -0.1,-0.2 0,0 -0.1,-0.1 -0.1,-0.1 0,0 0,0 0,0 0,0 0,0 0,0 0.1,0 0.2,0 0.2,0 0.1,0 0.2,0.1 0.2,0.1 0.1,0 0.1,0.1 0.2,0.2 z"
   id="path4851"
   inkscape:connector-curvature="0"
   style="fill:#0fd40a" />
				<path
   class="st8"
   d="m 629.8,676.3 c 0.1,0.2 0.1,0.4 0,0.5 -0.1,0.2 -0.3,0.3 -0.5,0.4 0,0 0,0 0,0 0.1,-0.1 0.1,-0.1 0.1,-0.2 0.1,-0.2 0.1,-0.3 0,-0.5 0,-0.1 0,-0.1 0,-0.2 0,-0.1 -0.1,-0.2 -0.1,-0.2 0,0 -0.1,-0.1 -0.1,-0.1 0,0 0,0 0,0 0,0 0,0 0,0 0.1,0 0.2,0 0.2,0 0.1,0 0.2,0.1 0.2,0.1 0.1,0 0.1,0.1 0.2,0.2 z"
   id="path4853"
   inkscape:connector-curvature="0"
   style="fill:#0fd40a" />
				<path
   class="st8"
   d="m 629.8,676.3 c 0.1,0.2 0.1,0.4 0,0.5 -0.1,0.2 -0.3,0.3 -0.5,0.4 0,0 0,0 0,0 0.1,-0.1 0.1,-0.1 0.1,-0.2 0.1,-0.2 0.1,-0.3 0,-0.5 0,-0.1 0,-0.1 -0.1,-0.2 0,-0.1 -0.1,-0.2 -0.1,-0.2 0,0 -0.1,-0.1 -0.1,-0.1 0,0 0,0 0,0 0,0 0,0 0,0 0.1,0 0.2,0 0.2,0 0.1,0 0.2,0.1 0.2,0.2 0.2,-0.1 0.2,0 0.3,0.1 z"
   id="path4855"
   inkscape:connector-curvature="0"
   style="fill:#0fd40a" />
				<path
   class="st8"
   d="m 629.8,676.3 c 0.1,0.2 0.1,0.4 0,0.5 -0.1,0.2 -0.3,0.3 -0.5,0.4 0,0 0,0 0,0 0.1,-0.1 0.1,-0.1 0.2,-0.2 0.1,-0.2 0.1,-0.3 0,-0.5 0,-0.1 0,-0.1 -0.1,-0.2 0,-0.1 -0.1,-0.2 -0.1,-0.2 0,0 -0.1,-0.1 -0.1,-0.1 0,0 0,0 0,0 0,0 0,0 0,0 0.1,0 0.2,0 0.2,0 0.1,0 0.2,0.1 0.2,0.2 0.1,-0.1 0.1,0 0.2,0.1 z"
   id="path4857"
   inkscape:connector-curvature="0"
   style="fill:#0fd40a" />
				<path
   class="st8"
   d="m 629.8,676.3 c 0.1,0.2 0.1,0.4 0,0.5 -0.1,0.2 -0.3,0.3 -0.5,0.4 0,0 0,0 0,0 0.1,-0.1 0.1,-0.1 0.2,-0.2 0.1,-0.2 0.1,-0.3 0.1,-0.5 0,-0.1 0,-0.1 -0.1,-0.2 0,-0.1 -0.1,-0.2 -0.1,-0.2 0,0 -0.1,-0.1 -0.1,-0.1 0,0 0,0 0,0 0,0 0,0 0,0 0.1,0 0.2,0 0.2,0.1 0.1,0 0.2,0.1 0.2,0.2 0,-0.2 0,-0.1 0.1,0 z"
   id="path4859"
   inkscape:connector-curvature="0"
   style="fill:#0fd40a" />
				<path
   class="st8"
   d="m 629.8,676.3 c 0.1,0.2 0.1,0.4 0,0.5 -0.1,0.2 -0.3,0.3 -0.5,0.4 0,0 0,0 0,0 0.1,-0.1 0.1,-0.1 0.2,-0.2 0.1,-0.2 0.1,-0.3 0.1,-0.5 0,-0.1 0,-0.1 -0.1,-0.2 0,-0.1 -0.1,-0.2 -0.1,-0.2 0,0 -0.1,-0.1 -0.1,-0.1 0,0 0,0 0,0 0,0 0,0 0,0 0.1,0 0.2,0 0.2,0.1 0.1,0 0.2,0.1 0.2,0.2 0,-0.2 0,-0.1 0.1,0 z"
   id="path4861"
   inkscape:connector-curvature="0"
   style="fill:#0fd40a" />
				<path
   class="st8"
   d="m 629.8,676.3 c 0.1,0.2 0.1,0.4 0,0.5 -0.1,0.2 -0.3,0.3 -0.5,0.4 0,0 0,0 0,0 0.1,-0.1 0.1,-0.1 0.2,-0.2 0.1,-0.2 0.1,-0.3 0.1,-0.5 0,-0.1 0,-0.1 -0.1,-0.2 0,-0.1 -0.1,-0.2 -0.2,-0.2 0,0 -0.1,-0.1 -0.1,-0.1 0,0 0,0 0,0 0,0 0,0 0,0 0.1,0 0.2,0 0.2,0.1 0.1,0 0.2,0.1 0.2,0.2 0.1,-0.2 0.1,-0.1 0.2,0 z"
   id="path4863"
   inkscape:connector-curvature="0"
   style="fill:#0fd40a" />
				<path
   class="st8"
   d="m 629.8,676.3 c 0.1,0.2 0.1,0.4 0,0.5 -0.1,0.2 -0.3,0.3 -0.4,0.4 0,0 0,0 0,0 0.1,-0.1 0.1,-0.1 0.2,-0.2 0.1,-0.2 0.1,-0.3 0.1,-0.5 0,-0.1 0,-0.1 -0.1,-0.2 0,-0.1 -0.1,-0.2 -0.2,-0.2 0,0 -0.1,-0.1 -0.1,-0.1 0,0 0,0 0,0 0,0 0,0 0,0 0.1,0 0.2,0 0.2,0.1 0.1,0 0.2,0.1 0.2,0.2 0,-0.2 0,-0.1 0.1,0 z"
   id="path4865"
   inkscape:connector-curvature="0"
   style="fill:#0fd40a" />
				<path
   class="st8"
   d="m 629.8,676.3 c 0.1,0.2 0.1,0.4 0,0.5 -0.1,0.2 -0.2,0.3 -0.4,0.4 0,0 0,0 0,0 0.1,-0.1 0.2,-0.1 0.2,-0.2 0.1,-0.2 0.1,-0.3 0.1,-0.5 0,-0.1 0,-0.1 -0.1,-0.2 0,-0.1 -0.1,-0.2 -0.2,-0.2 0,0 -0.1,-0.1 -0.2,-0.1 0,0 0,0 0,0 0,0 0,0 0,0 0.1,0 0.2,0 0.2,0.1 0.1,0 0.2,0.1 0.2,0.2 0.1,-0.2 0.1,-0.1 0.2,0 z"
   id="path4867"
   inkscape:connector-curvature="0"
   style="fill:#0fd40a" />
				<path
   id="XMLID_11_"
   class="st8"
   d="m 629.2,675.8 c 0,0 0,0 0,0 0.1,0 0.1,0.1 0.2,0.1 0.1,0.1 0.2,0.3 0.3,0.5 0.1,0.2 0,0.3 -0.1,0.5 -0.1,0.1 -0.1,0.2 -0.2,0.2 0,0 0,0 0,0 0.2,-0.1 0.3,-0.2 0.4,-0.4 0.1,-0.2 0.1,-0.4 0,-0.5 0,-0.1 -0.1,-0.2 -0.1,-0.2 0,0 -0.1,-0.1 -0.2,-0.2 -0.2,0.1 -0.2,0 -0.3,0 0,0 0,0 0,0 z"
   inkscape:connector-curvature="0"
   style="fill:#0fd40a" />
			</g>
		</g>
	</g>
	<g
   id="g4914">
		<path
   class="st4"
   d="m 638.4,660.9 -47.9,-22.7 45.9,21.7 -47.2,-22.4 -0.4,0.9 v 0 l -0.2,0.3 0.6,-1.2 -2.1,-1 c -1.7,-0.8 -3.8,-0.1 -4.6,1.6 l -10.2,21.5 c -0.8,1.7 -0.1,3.8 1.6,4.6 l 51.4,24.3 c 1.7,0.8 3.8,0.1 4.6,-1.6 l 10.2,-21.5 c 0.7,-1.6 0,-3.7 -1.7,-4.5 z m -50.1,-21.6 v 0 l -5.8,12.2 -6.5,13.8 z"
   id="path4873"
   inkscape:connector-curvature="0"
   style="fill:#0f1238" />
		<g
   id="g4881">
			<polygon
   class="st7"
   points="574.8,662 595.7,671.9 "
   id="polygon4875"
   style="fill:#ffffff" />
			<path
   class="st7"
   d="m 637.2,657.6 -47.9,-22.7 45.9,21.7 -13.2,27.8 -26.3,-12.5 28.4,13.5 c 1.7,0.8 3.8,0.1 4.6,-1.6 l 10.2,-21.5 c 0.8,-1.8 0,-3.8 -1.7,-4.7 z"
   id="path4877"
   inkscape:connector-curvature="0"
   style="fill:#ffffff" />
			<path
   class="st7"
   d="m 585.9,633.3 c -1.7,-0.8 -3.8,-0.1 -4.6,1.6 l -10.2,21.5 c -0.8,1.7 -0.1,3.8 1.6,4.6 l 2.1,1 13.2,-27.7 z"
   id="path4879"
   inkscape:connector-curvature="0"
   style="fill:#ffffff" />
		</g>
		<g
   id="g4889">
			<path
   class="st8"
   d="m 633.1,668.1 c -0.2,-0.1 -0.4,0 -0.4,0.2 l -2.9,6.2 c -0.1,0.2 0,0.4 0.2,0.4 0.2,0.1 0.4,0 0.4,-0.2 l 2.9,-6.2 c 0,-0.1 -0.1,-0.3 -0.2,-0.4 z"
   id="path4883"
   inkscape:connector-curvature="0"
   style="fill:#0fd40a" />
			<path
   class="st8"
   d="m 580.3,644 c -0.2,-0.1 -0.4,0 -0.5,0.2 l -2.6,5.4 c -0.1,0.2 0,0.4 0.2,0.5 0.2,0.1 0.4,0 0.5,-0.2 l 2.6,-5.4 c 0,-0.3 0,-0.5 -0.2,-0.5 z"
   id="path4885"
   inkscape:connector-curvature="0"
   style="fill:#0fd40a" />
			<path
   class="st8"
   d="m 629.7,676.1 c 0,0 0,0 0,0 0,0 0,0 0,0 0,0 0,0 0,0 0,0 0,0 0,0 0,0 0,0 0,0 0,0 0,0 0,0 0,0 0,0 0,0 0,0 0,0 0,0 0,0 0,0 0,0 0,0 0,0 0,0 0,0 0,0 0,0 0,0 0,0 0,0 0,0 0,0 0,0 0,0 0,0 0,0 0,0 0,0 0,0 0,0 0,0 0,0 0,0 0,0 0,0 0,0 0,0 0,0 0,0 0,0 0,0 0,0 0,0 0,0 0,0 0,0 0,0 0,0 0,0 0,0 0,0 0,0 0,0 0,0 0,0 0,0 0,0 0,0 0,0 0,0 0,0 0,0 v 0 c 0,0 0,0 0,0 -0.1,-0.1 -0.1,-0.1 -0.1,-0.1 v 0 0 c 0,0 0,0 0,0 v 0 0 c 0,0 0,0 0,0 v 0 0 c 0,0 0,0 0,0 0,0 0,0 0,0 v 0 c 0,0 0,0 0,0 0,0 0,0 0,0 v 0 c 0,0 0,0 0,0 0,0 0,0 0,0 v 0 c 0,0 0,0 0,0 0,0 0,0 0,0 v 0 c 0,0 0,0 0,0 0,0 0,0 0,0 v 0 c 0,0 0,0 0,0 0,0 0,0 0,0 v 0 c 0,0 0,0 0,0 0,0 0,0 0,0 v 0 c 0,0 0,0 0,0 0,0 0,0 0,0 v 0 c 0,0 0,0 0,0 v 0 c 0,0 0,0 0,0 -0.1,0 -0.2,-0.1 -0.2,-0.1 0,0 0,0 0,0 0,0 0,0 0,0 0,0 0,0 0,0 -0.1,0 -0.2,0 -0.3,0 0,0 0,0 0,0 0,0 0,0 0,0 0,0 0,0 0,0 0,0 0,0 -0.1,0 -0.1,0.1 -0.2,0.2 -0.3,0.3 -0.2,0.3 0,0.8 0.3,0.9 0.2,0.1 0.3,0.1 0.5,0 v 0 c 0,0 0,0 0,0 0,0 0,0 0,0 0,0 0,0 0,0 0,0 0,0 0,0 0,0 0,0 0,0 0,0 0,0 0,0 v 0 c 0,0 0,0 0,0 v 0 c 0,0 0,0 0,0 0,0 0,0 0,0 0,0 0,0 0,0 0,0 0,0 0,0 0,0 0,0 0,0 0,0 0,0 0,0 0,0 0,0 0,0 0,0 0,0 0,0 0,0 0,0 0,0 0,0 0,0 0,0 0,0 0,0 0,0 0,0 0,0 0,0 0,0 0,0 0,0 0,0 0,0 0,0 0,0 0,0 0,0 0,0 0,0 0,0 0,0 0,0 0,0 0,0 0,0 0,0 0,0 0,0 0,0 0,0 0,0 0,0 0,0 0,0 0,0 0,0 0,0 0,0 0,0 0,0 0,0 0,0 0,0 0,0 0,0 0,0 0,0 0,0 0,0 0,0 0,0 0,0 0,0 0,0 0,0 0,0 0,0 0,0 0,0 0,0 0,0 0,0 0,0 0,0 0,0 0,0 0,0 0,0 0,0 0,0 0,0 0,0 0,0 0,0 0,0 0,0 0,0 0,0 0,0 0,0 0,0 0,0 0,0 v 0 c 0,0 0,0 0,0 0,0 0,0 0,0 0,0 0,0 0,0 0,0 0,0 0,0 0,0 0,0 0,0 0,0 0,0 0,0 0,0 0,0 0,0 0,0 0,0 0,0 0,0 0,0 0,0 0,0 0,0 0,0 0,0 0,0 0,0 0,0 0,0 0,0 0,0 0,0 0,0 0,0 0,0 0,0 0,0 0,0 0,0 0,0 0,0 0,0 0,0 0,0 0,0 0,0 0,0 0,0 0,0 0,0 0,0 0,0 0,0 0,0 0,0 0,0 0,0 0,0 0,0 0,0 0,0 0,0 0,0 0,0 0,0 0,0 0,0 0,0 0,0 0,0 0,0 0,0 0,0 0,0 0,0 0,0 0,0 0,0 0,0 0,0 0,0 0,0 0,0 0,0 0,0 0,0 0,0 0,0 0,0 0,0 0,0 0,0 0,0 0,0 0,0 0,0 0,0 0,0 0,0 0,0 0,0 0,0 0,0 0.1,-0.1 0.1,-0.2 0.1,-0.2 0.1,-0.4 0,-0.5 0.2,-0.2 0.2,-0.2 0.1,-0.3 z"
   id="path4887"
   inkscape:connector-curvature="0"
   style="fill:#0fd40a" />
		</g>
		
			<rect
   x="589.59998"
   y="633.20001"
   transform="matrix(-0.4284,0.9036,-0.9036,-0.4284,1459.8864,395.1343)"
   class="st7"
   width="30.700001"
   height="52.299999"
   id="rect4891"
   style="fill:#ffffff" />
		
			<linearGradient
   id="SVGID_9_"
   gradientUnits="userSpaceOnUse"
   x1="-5393.7119"
   y1="-5416.2891"
   x2="-5364.8511"
   y2="-5416.2891"
   gradientTransform="matrix(-0.4284,0.9036,-0.9036,-0.4284,-6593.5269,3200.1096)">
			<stop
   offset="5.045896e-08"
   style="stop-color:#0FD40A"
   id="stop4893" />
			<stop
   offset="0.2801"
   style="stop-color:#1EB92A"
   id="stop4895" />
			<stop
   offset="0.7619"
   style="stop-color:#378F5C"
   id="stop4897" />
			<stop
   offset="1"
   style="stop-color:#407F6F"
   id="stop4899" />
		</linearGradient>
		<polygon
   class="st21"
   points="634.7,657.6 622.4,683.6 575.1,661.3 587.5,635.2 "
   id="polygon4902"
   style="fill:url(#SVGID_9_)" />
		
			<rect
   x="610.5"
   y="620.70001"
   transform="matrix(-0.4284,0.9036,-0.9036,-0.4284,1457.0413,371.8119)"
   class="st4"
   width="0.89999998"
   height="52.299999"
   id="rect4904"
   style="fill:#0f1238" />
		
			<rect
   x="567.40002"
   y="648.20001"
   transform="matrix(-0.4284,0.9036,-0.9036,-0.4284,1416.8245,400.9008)"
   class="st4"
   width="28.4"
   height="0.80000001"
   id="rect4906"
   style="fill:#0f1238" />
		
			<rect
   x="589.59998"
   y="633.20001"
   transform="matrix(-0.4284,0.9036,-0.9036,-0.4284,1459.8279,395.1415)"
   class="st7"
   width="30.700001"
   height="52.299999"
   id="rect4908"
   style="fill:#ffffff" />
		
			<rect
   x="590.5"
   y="633.29999"
   transform="matrix(-0.4284,0.9036,-0.9036,-0.4284,1459.8429,395.2649)"
   class="st17"
   width="28.9"
   height="52.299999"
   id="rect4910"
   style="fill:#59b279" />
		<polygon
   class="st4"
   points="587.3,635.6 587.3,635.6 575.1,661.2 575.9,661.6 587.8,636.4 634.3,658.4 634.7,657.6 587.5,635.2 "
   id="polygon4912"
   style="fill:#0f1238" />
	</g>
	
		<rect
   x="641.59998"
   y="462.10001"
   transform="matrix(0.2908,-0.9568,0.9568,0.2908,-13.3597,1021.142)"
   class="st4"
   width="81"
   height="115"
   id="rect4916"
   style="fill:#0f1238" />
	
		<rect
   x="640.79999"
   y="459.79999"
   transform="matrix(0.2908,-0.9568,0.9568,0.2908,-11.7484,1018.7418)"
   class="st7"
   width="81"
   height="115"
   id="rect4918"
   style="fill:#ffffff" />
	<linearGradient
   id="SVGID_10_"
   gradientUnits="userSpaceOnUse"
   x1="606.7309"
   y1="519.49921"
   x2="740.35968"
   y2="519.49921">
		<stop
   offset="4.289012e-07"
   style="stop-color:#273282"
   id="stop4920" />
		<stop
   offset="0.9841"
   style="stop-color:#0F1238"
   id="stop4922" />
	</linearGradient>
	<polygon
   class="st22"
   points="606.7,541.5 630.3,464 740.4,497.5 716.8,575 "
   id="polygon4925"
   style="fill:url(#SVGID_10_)" />
	
		<rect
   x="631.79999"
   y="459.79999"
   transform="matrix(0.2908,-0.9568,0.9568,0.2908,-18.131,1010.1309)"
   class="st7"
   width="81"
   height="115"
   id="rect4927"
   style="fill:#ffffff" />
	<linearGradient
   id="SVGID_11_"
   gradientUnits="userSpaceOnUse"
   x1="601.21808"
   y1="517.49921"
   x2="734.84698"
   y2="517.49921">
		<stop
   offset="4.289012e-07"
   style="stop-color:#273282"
   id="stop4929" />
		<stop
   offset="0.9841"
   style="stop-color:#0F1238"
   id="stop4931" />
	</linearGradient>
	<polygon
   class="st23"
   points="601.2,539.5 624.8,462 734.8,495.5 711.3,573 "
   id="polygon4934"
   style="fill:url(#SVGID_11_)" />
	<g
   id="g4974">
		
			<rect
   x="626.29999"
   y="458.10001"
   transform="matrix(-0.2942,0.9558,-0.9558,-0.2942,1355.8297,29.9582)"
   class="st7"
   width="81"
   height="115"
   id="rect4936"
   style="fill:#ffffff" />
		<line
   class="st24"
   x1="723.70001"
   y1="497"
   x2="703.40002"
   y2="563"
   id="line4938"
   style="fill:none;stroke:#0f1238;stroke-miterlimit:10" />
		<line
   class="st24"
   x1="718.29999"
   y1="495.29999"
   x2="698"
   y2="561.29999"
   id="line4940"
   style="fill:none;stroke:#0f1238;stroke-miterlimit:10" />
		<line
   class="st24"
   x1="713.5"
   y1="493.89999"
   x2="693.20001"
   y2="559.90002"
   id="line4942"
   style="fill:none;stroke:#0f1238;stroke-miterlimit:10" />
		<line
   class="st24"
   x1="703.29999"
   y1="490.70001"
   x2="683"
   y2="556.70001"
   id="line4944"
   style="fill:none;stroke:#0f1238;stroke-miterlimit:10" />
		<line
   class="st24"
   x1="698.90002"
   y1="489.39999"
   x2="678.59998"
   y2="555.40002"
   id="line4946"
   style="fill:none;stroke:#0f1238;stroke-miterlimit:10" />
		<line
   class="st24"
   x1="694.59998"
   y1="488"
   x2="674.20001"
   y2="554"
   id="line4948"
   style="fill:none;stroke:#0f1238;stroke-miterlimit:10" />
		<line
   class="st24"
   x1="681.40002"
   y1="484"
   x2="661.09998"
   y2="550"
   id="line4950"
   style="fill:none;stroke:#0f1238;stroke-miterlimit:10" />
		<line
   class="st24"
   x1="677"
   y1="482.60001"
   x2="656.70001"
   y2="548.59998"
   id="line4952"
   style="fill:none;stroke:#0f1238;stroke-miterlimit:10" />
		<line
   class="st24"
   x1="672.70001"
   y1="481.29999"
   x2="652.29999"
   y2="547.29999"
   id="line4954"
   style="fill:none;stroke:#0f1238;stroke-miterlimit:10" />
		<line
   class="st24"
   x1="668.29999"
   y1="480"
   x2="648"
   y2="545.90002"
   id="line4956"
   style="fill:none;stroke:#0f1238;stroke-miterlimit:10" />
		<line
   class="st24"
   x1="663.90002"
   y1="478.60001"
   x2="643.59998"
   y2="544.59998"
   id="line4958"
   style="fill:none;stroke:#0f1238;stroke-miterlimit:10" />
		<line
   class="st24"
   x1="659.59998"
   y1="477.29999"
   x2="639.29999"
   y2="543.29999"
   id="line4960"
   style="fill:none;stroke:#0f1238;stroke-miterlimit:10" />
		<line
   class="st24"
   x1="650.90002"
   y1="474.60001"
   x2="630.59998"
   y2="540.59998"
   id="line4962"
   style="fill:none;stroke:#0f1238;stroke-miterlimit:10" />
		<line
   class="st24"
   x1="646.5"
   y1="473.29999"
   x2="626.20001"
   y2="539.20001"
   id="line4964"
   style="fill:none;stroke:#0f1238;stroke-miterlimit:10" />
		<line
   class="st24"
   x1="642.20001"
   y1="471.89999"
   x2="621.90002"
   y2="537.90002"
   id="line4966"
   style="fill:none;stroke:#0f1238;stroke-miterlimit:10" />
		<line
   class="st24"
   x1="637.79999"
   y1="470.60001"
   x2="617.5"
   y2="536.59998"
   id="line4968"
   style="fill:none;stroke:#0f1238;stroke-miterlimit:10" />
		<line
   class="st24"
   x1="633.5"
   y1="469.20001"
   x2="613.09998"
   y2="535.20001"
   id="line4970"
   style="fill:none;stroke:#0f1238;stroke-miterlimit:10" />
		<line
   class="st24"
   x1="629.09998"
   y1="467.89999"
   x2="608.79999"
   y2="533.90002"
   id="line4972"
   style="fill:none;stroke:#0f1238;stroke-miterlimit:10" />
	</g>
	<path
   class="st11"
   d="m 686.6,492.1 c 0,0 0,0 0,0 -0.1,-1.2 -0.8,-6.7 -2.4,-11.9 -0.6,-2.3 -1.4,-4.7 -2.3,-6.9 -0.8,-2 -0.9,-5.3 -0.5,-6.2 0.3,-0.9 0.8,-2.8 -0.8,-5.1 -0.6,-0.9 -0.7,-4 -0.6,-7.6 0.5,-5.2 0.9,-12.7 3.1,-26 5.8,-34.5 7,-53.9 5.6,-70.7 -0.4,-4.3 -3.2,-6.6 -7.3,-7.4 0,0 -0.1,0 -0.1,0 -8.4,-2.1 -27.7,-4.1 -74.3,3.6 -28.4,4.7 -31.8,6 -40.2,8.7 -7.2,2.1 -14.1,4.8 -20.8,8.1 -5.9,4 -1.6,17.2 -0.8,21.8 2.6,13.5 11.2,22.4 19.3,20.5 31.3,-7.6 64.5,-16.9 86.1,-22.2 1.2,21.3 5.5,52.5 7.8,67.3 0.2,5.1 0.4,9.7 0.2,11 -0.3,3.3 -3,5.8 -4.4,10.9 -1.4,5.1 -1.8,15.8 -1,16.8 0.4,0.5 2,1.3 3.6,1.9 0.3,3.7 0.4,10.4 0.6,12.3 0.3,2.7 0.9,11.9 1,13.1 0.1,1.2 0.1,5.4 2.8,5.5 0,0 0,0 0,0 0,0 0,0 0,0 0,0 0,0 0,0 0,0 0,0 0,0 2.7,-0.1 2.7,-4.3 2.7,-5.5 0.1,-1.2 0.7,-16.5 0.4,-18 -0.1,-0.5 -0.1,-1.9 -0.1,-3.5 0.4,1.5 1.2,3.4 2.8,3.3 1.2,-0.1 4,-0.4 4.7,-1.1 0.6,-0.7 1.1,-2.4 1.2,-3.5 0.5,0.5 1.5,1.7 2.6,1.7 1.3,0.1 3.1,-0.5 4.1,-1.6 0.5,-0.6 0.6,-1.9 0.8,-2.9 0.8,0.2 1.6,0.7 2.2,0.7 1.1,0 2.1,-0.6 2.9,-1.2 1.1,-1 1,-4.9 1,-5.6 0.1,-0.2 0.1,-0.2 0.1,-0.3 0,0.1 0,0 0,0 0,0 0,0 0,0 z"
   id="path4976"
   inkscape:connector-curvature="0"
   style="fill:#e0bf89" />
	<path
   class="st9"
   d="m 548.6,418.3 c 3.8,-2 26.8,-5.5 35.8,-6.8 16.3,-4.2 30.6,-8 30.6,-8 l -10.6,-51.9 c 0,0 -3.2,0.5 -5,0.8 -32.6,5.3 -36.5,6.9 -46.2,10 -7.6,2.2 -15,5 -22.2,8.4 -2.2,0.8 -4.3,1.7 -6.4,2.7 -13.8,6.9 -32.3,24.6 -38.9,32.6 l -17.4,21.1 26.1,-3.5 33.3,18.6 c 0,0 3.6,6.3 7.5,13.8 6,-5.3 13.4,-37.8 13.4,-37.8 z"
   id="path4978"
   inkscape:connector-curvature="0"
   style="fill:#c1ffad" />
	<path
   class="st11"
   d="m 471.5,469.4 c 0,0 2.3,12 14.3,12.7 12,0.7 6,-0.1 6,-0.1 0,0 22.2,7.5 29.1,5.3 6.9,-2.2 11.9,-6.3 11.9,-6.3 0,0 7,-0.2 9,-1.2 2,-1 1.8,-8 1.8,-9 0,-1 5.6,-18.1 3.5,-23.1 -2.1,-5 -7.5,-20.8 -11.6,-24.7 0,0 -1.2,-9 -5.2,-10.9 -4,-1.9 -6.1,-2.9 -10.1,-2.8 0,0 -10.2,-9.8 -14.2,-10.7 -4,-0.9 -31,-1.3 -39.6,17.9 -8.7,19.2 -15.4,32.4 5.1,52.9 z"
   id="path4980"
   inkscape:connector-curvature="0"
   style="fill:#e0bf89" />
	<path
   class="st6"
   d="m 457.2,456.7 c 0,0 24.6,25.4 32.6,27.3 8,1.8 9.9,-3.2 9.9,-6.2 0,0 11.2,6.7 20,-1.5 8.8,-8.2 15.3,-30.7 26.3,-31.3 0,0 3.8,-10.4 -16.6,-28 -20.4,-17.5 -20.5,-19.5 -28.5,-20.4 -8,-0.8 -27,1.6 -33.7,12.8 -6.7,11.2 -5.7,14.1 -5.7,14.1 0,0 -16.8,11.5 -4.3,33.2 z"
   id="path4982"
   inkscape:connector-curvature="0"
   style="fill:#0b7a75" />
	<path
   class="st25"
   d="m 461,427.2 c 0,0 -10.7,19.2 3.4,31.8 6.8,6.1 15.5,16.4 22.6,19.4 5.1,2.1 8.2,2.2 11,-4.1 0,0 4.7,3.3 6.1,3.3 6.1,0 7.4,-5.2 10.8,-9.1 0,0 -50.9,-16.7 -53.9,-41.3 z"
   id="path4984"
   inkscape:connector-curvature="0"
   style="fill:#28397f" />
	<path
   class="st11"
   d="m 624.9,604.3 c 5.2,-3.1 9.3,-6.7 7.7,-9.9 -1.7,-3.3 -19.7,4.7 -22.7,6 -1.9,0.8 -3.4,1.6 -4.5,2.4 -0.2,0 -0.4,0.1 -0.6,0.1 -19.8,-4.6 -68.3,-14.5 -83.7,-13.8 -1.2,0.1 -2.3,0.2 -3.4,0.5 -4.5,-9.1 -11.1,-32.5 -20.2,-58.6 -2.3,-0.4 -4.4,-1.5 -6.3,-3 -7.3,-6 -15.4,-11 -22.8,-17 -7.4,-5.9 -14.3,-12.5 -20.5,-19.7 -0.3,-0.4 -0.6,-0.8 -0.9,-1.2 -4.3,3.6 -8.6,8.9 -9,15 0.3,5.5 2.8,11.8 4.8,16.8 3.3,8.2 6.3,18.1 20.5,43.1 23.4,41 27.2,52.3 34.1,57.4 0.1,0.1 0.2,0.1 0.2,0.1 1.1,1.8 2.9,3.1 5.5,3.5 16.7,2.6 36.1,2.8 70.9,-0.6 18,-1.7 25.4,-0.8 30.8,-1.6 5.1,5.5 13.7,10 23.4,9.8 7.8,-0.1 30.5,-3.3 36.6,-15.5 3.5,-7.3 -21.3,-11.7 -39.9,-13.8 z"
   id="path4986"
   inkscape:connector-curvature="0"
   style="fill:#e0bf89" />
	<path
   class="st9"
   d="m 501.7,524.4 c -5.2,-2.4 -12.5,-8 -27.3,-19.5 -18.8,-14.5 -24,-39.4 -25.5,-50.1 -1.9,3.1 -3.6,6.2 -5,9.2 -7.6,16.1 -9.1,30.8 -6.3,42.2 0,0.1 0,0.3 0,0.4 0.3,6.3 3.2,13.5 5.5,19.3 3.6,9.8 7.7,19.4 12.4,28.8 3,6 6.6,12.7 11.2,20.7 13.8,-6.4 44.3,-21.2 45.2,-21.8 -2.4,-7.1 -4.8,-14.1 -7.3,-21.3 -0.9,-2.6 -1.9,-5.3 -2.9,-7.9 z"
   id="path4988"
   inkscape:connector-curvature="0"
   style="fill:#c1ffad" />
</g>
</svg>