<svg width="53" height="53" version="1.1" viewBox="0 0 53 53" xmlns="http://www.w3.org/2000/svg">
  <path d="m4.6582 0a4.664 4.664 0 0 0-4.6582 4.6582v2.3652a17 17 0 0 0 3.7129 10.584 17.3 17.3 0 0 0 7.9746 5.4922l1.6445 0.54883a15.468 15.468 0 0 0 8.5098 6.6523v2.4141a1.555 1.555 0 0 1-1.5527 1.5527 4.664 4.664 0 0 0-4.6582 4.6582v1.5527h-1.5527a1.553 1.553 0 0 0-1.5527 1.5527v7.8672h-1.5527a1.553 1.553 0 1 0 0 3.1055h31.055a1.553 1.553 0 1 0 0-3.1055h-1.5527v-7.8711a1.553 1.553 0 0 0-1.5527-1.5527h-1.5527v-1.5527a4.664 4.664 0 0 0-4.6582-4.6582 1.555 1.555 0 0 1-1.5527-1.5527v-2.4102a15.467 15.467 0 0 0 8.5-6.6426l1.7422-0.55859 0.019531-0.005859a16.941 16.941 0 0 0 11.58-16.07v-2.3652a4.664 4.664 0 0 0-4.6582-4.6582h-43.684zm0 3.1055h4.9238l1.5801 14.221a15.3 15.3 0 0 0 0.47656 2.4336 14.036 14.036 0 0 1-5.5-4.0918h-0.0019531a13.885 13.885 0 0 1-3.0312-8.6445v-2.3652a1.555 1.555 0 0 1 1.5527-1.5527zm8.0488 0h27.586l-1.543 13.879a12.32 12.32 0 0 1-9.4922 10.615 1.552 1.552 0 0 0-1.2012 1.5137v3.5996a4.664 4.664 0 0 0 4.6582 4.6582 1.555 1.555 0 0 1 1.5527 1.5527v1.5527h-15.531v-1.5547a1.555 1.555 0 0 1 1.5527-1.5527 4.664 4.664 0 0 0 4.6582-4.6582v-3.5996a1.552 1.552 0 0 0-1.2012-1.5137 12.32 12.32 0 0 1-9.4961-10.613l-1.543-13.879zm30.711 0h4.9238a1.555 1.555 0 0 1 1.5527 1.5527v2.3652a13.836 13.836 0 0 1-8.5449 12.785 15.291 15.291 0 0 0 0.48828-2.4824l1.5801-14.221zm-16.914 3.1055a1.553 1.553 0 0 0-1.3887 0.85156l-1.5547 3.0742-3.4902 0.49609a1.553 1.553 0 0 0-0.85156 2.6621l2.5 2.3809-0.58789 3.3535a1.552 1.552 0 0 0 2.2363 1.6504l3.1309-1.6074 3.1289 1.6074a1.553 1.553 0 0 0 2.2383-1.6504l-0.58789-3.3535 2.5-2.3809a1.553 1.553 0 0 0-0.84766-2.6621l-3.4902-0.49609-1.5527-3.0742a1.553 1.553 0 0 0-1.3828-0.85156zm-0.001953 4.9922 0.53125 1.0566a1.553 1.553 0 0 0 1.168 0.83594l1.1172 0.1582-0.78125 0.74609a1.552 1.552 0 0 0-0.45898 1.3945l0.19141 1.0996-1.0586-0.54492a1.553 1.553 0 0 0-1.418 0l-1.0605 0.54492 0.19336-1.0996a1.554 1.554 0 0 0-0.45898-1.3945l-0.7832-0.74414 1.1172-0.1582a1.552 1.552 0 0 0 1.166-0.83789l0.53516-1.0566zm-10.871 32.377h21.738v6.3145h-21.738v-6.3145z" fill="#d9d9d9"/>
</svg>
