<?xml version="1.0" encoding="UTF-8"?>
<svg width="1365" height="1554.9" version="1.1" viewBox="0 0 1365 1554.9" xml:space="preserve" xmlns="http://www.w3.org/2000/svg">
<style type="text/css">
	.st0{fill:#E8E8E8;}
	.st1{fill:#ED1E45;}
	.st2{fill:#0FD40A;}
	.st3{fill:#C1FFAD;}
	.st4{fill:#0B7A75;}
	.st5{fill:#59B279;}
	.st6{fill:#62EF5F;}
	.st7{fill:#B21239;}
</style>
<g id="water-illustration" transform="matrix(.914 -.407 .407 .914 936.15 211.05)">
	<path id="Grey_blob" class="st0" d="m408.6 92.1c6.3-186.3-136.8-220.5-227.7-177.7-128.9 60.6-124.1 138.5-290.7-9.8-56.5-50.3-135.1-80.2-210.8-63.8-54.4 11.7-103.9 47.6-129 97.4-13.9 27.7-20.3 58.5-31.4 87.4s-29 57.4-57.1 70.3c-27.2 12.4-59.1 8-87.4-1.4-68.1-22.6-125.1-72.6-195.4-89-59.3-13.9-131.6-6.8-182.9 27.5-67.2 44.8-95.2 128.5-113.5 203.3-21.5 87.7-24.6 179.5-12.6 268.8 15.4 114.5 55.1 224.9 109.7 326.6 48.6 90.6 109.6 175.7 187.9 242.3 123.8 105.4 341 193.3 470.1 48.6 155.4-174.1-22.4-316 183.1-289.1 123 16.1 323.7-58.9 272.6-314.2s306-158.9 315.1-427.2z" fill="#e8e8e8"/>
</g>
<g transform="matrix(.914 -.407 .407 .914 36.412 -13.358)">
	<g transform="translate(-114.2 166.57)" fill="#ed1e45">
		<path id="Path_1374-2_1_" class="st1" d="m737 671c0.1 0-6.5-17.4-6.7-17.5l87.9-24.6s0.8 3 1.6 5.6z"/>
		<path id="Path_1504_1_" class="st1" d="m670.5 619.5s-36.6-19.2-16.5-56.2 46.7-1.8 46.7-1.8l-3.2 7.3s-23.2-31.4-36.8-2.5 5.4 41.8 12.8 46.5z"/>
		<path id="Path_1503_1_" class="st1" d="m832.2 613.8c-0.1 0 6 28.6 6.1 28.7l-20.2-7.3-1.6-5.6z"/>
		<path id="Path_1373-2_1_" class="st1" d="m713.3 549.4 51 22.6c3.5 1.6 5.2 5.5 4.1 9.1l-27.1 85.4c-1.3 4-5.5 6.2-9.5 4.9-0.3-0.1-0.6-0.2-0.8-0.3l-63.9-28.5c-3.8-1.7-5.5-6.2-3.7-10 0.1-0.3 0.3-0.5 0.4-0.8l40-79.6c2-3.2 6.1-4.4 9.5-2.8z"/>
	</g>
</g>
<path class="st2" d="m1136.2 424.24c2.8-10.8-0.1-22.9-0.1-22.9-27.5 2-42.8 24.9-31 32.5 16.4 10.6 28.6-0.6 31.1-9.6z" fill="#0fd40a"/>
<path class="st3" d="m1114.5 415.24c-1.3-11-8.4-21.2-8.4-21.2-24.8 11.9-30.6 38.8-16.9 41.6 19.2 3.7 26.5-11.1 25.3-20.4z" fill="#c1ffad"/>
<path class="st2" d="m1091.8 410.44c-5.5-8.4-15.4-13.8-15.4-13.8-15.2 19.8-9 43.9 3.2 40.6 17.1-4.6 17-19.6 12.2-26.8z" fill="#0fd40a"/>
<path class="st4" d="m1073.6 407.64c-7.8-4.6-17.9-5-17.9-5-4.4 21.9 10 38.9 18.6 31.5 12-10.5 6-22.6-0.7-26.5z" fill="#0b7a75"/>
<path class="st4" d="m1152.9 321.84c2.3-39.7-16-80.4-16-80.4-95.4 26.1-133.3 117.2-86.7 135.9 65.2 26.1 100.7-21.5 102.7-55.5z" fill="#0b7a75"/>
<path class="st5" d="m1127 252.24c-9.8 5-17.9 12.5-24.8 20.9-1.8 2-3.3 4.2-4.9 6.4-1.4 2.3-3.2 4.4-4.6 6.8l-4 7.1-2 3.6-1.7 3.7c-4.6 9.8-8.2 20-11 30.6l-3.7 15.9-2.2 16.1c-0.2 2.8-0.8 5.4-0.9 8.1l-0.3 8.1-0.7 16.2c0.4 10.8 0.4 21.7 1.3 32.5 1.2 10.7 2 21.6 3.6 32.2l5.4 32 0.8-0.1c-0.3-11-1.4-21.7-2.1-32.5-0.9-10.7-1.1-21.5-1.7-32.1v-32l1-15.9 0.4-7.9c0.1-2.6 0.7-5.2 1-7.8l2-15.7 3.2-15.3c2.3-10.2 5.4-20.2 9.3-29.9l1.3-3.7 1.7-3.6 3.4-7c1.1-2.3 2.7-4.4 4-6.7s2.8-4.4 4.3-6.6c5.8-8.9 13.2-16.7 21.9-22.8z" fill="#59b279"/>
<path class="st2" d="m1002.3 289.44c-1.4-30.2 13-61 13-61 72.3 20.9 100.3 90.6 64.6 104.3-49.9 19.2-76.5-17.5-77.6-43.3z" fill="#0fd40a"/>
<path class="st3" d="m1022.4 237.34c12.3 18.5 22 38.7 30.2 59.3 8.1 20.7 14.8 41.9 19.9 63.6 1.2 5.4 2.2 10.9 3.4 16.3l1.7 8.1 1.3 8.2 2.6 16.5 2.7 24.9 0.6 8.3 0.9 16.7c0.4 11.1 0.2 22.2 0.3 33.4h0.6c0.6-5.6 1-11.1 1.3-16.7 0.2-5.6 0.9-11.2 0.9-16.8l-0.3-25.2-0.6-8.4c-0.4-5.6-0.8-11.2-1.3-16.8l-2.3-16.7-1.2-8.3-1.6-8.3c-1-5.6-2-11.1-3.2-16.6-5.6-21.8-12.2-43.4-21.3-63.9-2.2-5.1-4.7-10.2-7.2-15.2-2.4-5.1-5.1-10-7.9-14.9-5.9-9.7-11.7-19.2-19-27.8z" fill="#c1ffad"/>
<path class="st3" d="m1237.1 203.94c-0.9-55.7-30.9-110.5-30.9-110.5-130.3 46.6-173.5 177.8-106.5 198.8 93.9 29.5 138.3-40.8 137.4-88.3z" fill="#c1ffad"/>
<path class="st2" d="m1193.4 109.94c-22.1 25.7-39.2 55.1-53.8 85.7-14.2 30.7-25.7 62.7-34 95.5-1.9 8.2-3.6 16.6-5.3 24.8-0.9 4.1-1.9 8.2-2.6 12.5l-1.8 12.6c-1.2 8.3-2.6 16.7-3.6 25.1l-2 25.3-1 12.7-0.2 12.7-0.3 25.3c-0.1 4.2 0.1 8.4 0.3 12.7l0.7 12.7 1.3 25.3 0.9-0.1c1.1-17 0.6-33.9 1.7-50.7l1.6-25.1 0.8-12.6 1.6-12.5c1-8.3 2.1-16.6 2.9-24.9 1.2-8.2 2.8-16.5 4.1-24.7l2-12.3c0.7-4.1 1.7-8.1 2.6-12.2 1.8-8.1 3.4-16.2 5.4-24.3l6.6-24.1c2-8.1 5.2-15.8 7.6-23.8 1.3-4 2.4-8 3.9-11.9l8.8-23.4 9.6-23.2 5.4-11.3c3.4-7.7 7.6-14.9 11.5-22.3 7.8-14.9 16.6-29.2 26.2-43z" fill="#0fd40a"/>
<path class="st6" d="m1251.9 325.44c12.3-38.2 4.7-82.7 4.7-82.7-99.8 1.4-159.9 80.9-119.1 111 57.2 41.9 104 4.3 114.4-28.3z" fill="#62ef5f"/>
<path class="st3" d="m1244.1 250.64c-21.7 11.6-40.2 27.9-57 45.6-16.6 18-31.1 37.8-43.5 58.9l-8.8 16.1c-3 5.3-5.2 11.1-7.9 16.6-5.3 10.9-9.5 22.5-13.8 33.9-2.2 5.7-3.9 11.6-5.7 17.5l-5.3 17.6c-3 11.9-5.6 23.8-8.3 35.7l0.7 0.1c4.1-11.6 7.2-23.3 11.1-34.8l6.1-17.1c2-5.8 3.9-11.6 6.4-17 2.4-5.6 4.9-11 7-16.7 2-5.7 5-11 7.4-16.5 2.7-5.3 4.9-11 8-16.1l8.9-15.7c11.9-20.9 25.8-40.6 41.5-58.7 3.9-4.6 7.8-9.1 12.1-13.3l6.3-6.4 6.7-6.1c8.8-8.3 18.2-16 28.4-22.7z" fill="#c1ffad"/>
<g transform="translate(-85.258 -133.66)" fill="#ed1e45">
	<path class="st1" d="m1216.6 630 8.4-66.8v-0.7c0-3.1-2.6-5.7-5.7-5.7l-73.6-0.4h-0.7c-3.1 0.3-5.3 3.1-5 6.2l7.6 66.9c0.3 2.8 2.7 5 5.6 5l57.7 0.3c2.9 0.2 5.4-1.9 5.7-4.8z"/>
	<path class="st1" d="m1230.5 567.1 1.8-11.3v-0.6c0.1-2.1-1.6-3.8-3.7-3.8l-92.1-0.7h-0.6c-2 0.3-3.4 2.2-3.1 4.2l1.7 11.3c0.2 1.9 1.8 3.2 3.7 3.2l88.6 0.6c1.9 0.1 3.5-1.2 3.7-2.9z"/>
</g>
<polygon class="st7" transform="translate(-85.258 -133.66)" points="1224.2 570.1 1223.3 577.2 1141.8 577.2 1140.9 569.5" fill="#b21239"/>
</svg>
